<?xml version="1.0" encoding="UTF-8" standalone="no"?>
<svg
   xmlns:dc="http://purl.org/dc/elements/1.1/"
   xmlns:cc="http://creativecommons.org/ns#"
   xmlns:rdf="http://www.w3.org/1999/02/22-rdf-syntax-ns#"
   xmlns:svg="http://www.w3.org/2000/svg"
   xmlns="http://www.w3.org/2000/svg"
   viewBox="0 0 967.79333 450.85068"
   height="450.85068"
   width="967.79333"
   xml:space="preserve"
   id="svg2"
   version="1.1"><metadata
     id="metadata8"><rdf:RDF><cc:Work
         rdf:about=""><dc:format>image/svg+xml</dc:format><dc:type
           rdf:resource="http://purl.org/dc/dcmitype/StillImage" /></cc:Work></rdf:RDF></metadata><defs
     id="defs6"><clipPath
       id="clipPath18"
       clipPathUnits="userSpaceOnUse"><path
         id="path16"
         d="M 0,338.138 H 725.845 V 0 H 0 Z" /></clipPath></defs><g
     transform="matrix(1.3333333,0,0,-1.3333333,0,450.85067)"
     id="g10"><g
       id="g12"><g
         clip-path="url(#clipPath18)"
         id="g14"><g
           transform="translate(641.1282,105.5022)"
           id="g20"><path
             id="path22"
             style="fill:#000000;fill-opacity:1;fill-rule:nonzero;stroke:none"
             d="M 0,0 V -10.25 H -10.304 V 0 h -5.259 v -26.044 h 5.259 v 11.388 H 0 V -26.044 H 5.259 V 0 Z m -24.802,-16.664 c 0,2.156 -0.39,3.71 -1.172,4.664 -0.782,0.953 -1.783,1.43 -3.003,1.43 -1.196,0 -2.191,-0.465 -2.984,-1.395 -0.794,-0.93 -1.19,-2.342 -1.19,-4.237 0,-1.954 0.308,-3.4 0.923,-4.334 0.865,-1.327 2.014,-1.99 3.447,-1.99 1.101,0 2.04,0.47 2.816,1.412 0.776,0.941 1.163,2.425 1.163,4.45 m 2.861,7.417 c 1.504,-1.663 2.256,-4.053 2.256,-7.168 0,-3.222 -0.767,-5.703 -2.3,-7.443 -1.535,-1.742 -3.397,-2.613 -5.588,-2.613 -1.077,0 -2.141,0.271 -3.189,0.809 -1.048,0.539 -1.951,1.336 -2.709,2.39 v -2.772 h -4.636 V 0 h 4.992 v -9.38 c 1.539,1.753 3.363,2.629 5.471,2.629 2.297,0 4.199,-0.832 5.703,-2.496 m -23.531,1.652 c -0.959,0.563 -2.132,0.844 -3.517,0.844 -1.09,0 -2.115,-0.248 -3.074,-0.746 -0.959,-0.497 -1.853,-1.249 -2.682,-2.256 -0.568,1.007 -1.297,1.759 -2.186,2.256 -0.887,0.498 -1.936,0.746 -3.144,0.746 -2.274,0 -4.235,-1.001 -5.88,-3.002 v 2.576 h -4.602 v -18.867 h 4.993 v 9.167 c 0,1.813 0.133,3.109 0.399,3.891 0.267,0.781 0.708,1.38 1.324,1.794 0.615,0.415 1.309,0.622 2.078,0.622 0.64,0 1.147,-0.13 1.52,-0.391 0.373,-0.261 0.648,-0.657 0.825,-1.19 0.178,-0.534 0.267,-1.717 0.267,-3.553 v -10.34 h 4.992 v 9.061 c 0,1.776 0.136,3.076 0.409,3.899 0.272,0.823 0.716,1.448 1.332,1.874 0.615,0.427 1.272,0.64 1.972,0.64 0.96,0 1.67,-0.356 2.132,-1.066 0.343,-0.545 0.515,-1.753 0.515,-3.625 v -10.783 h 4.992 v 12.063 c 0,1.8 -0.172,3.103 -0.515,3.908 -0.474,1.09 -1.191,1.916 -2.15,2.478 m -30.438,-8.838 c -1.054,0.876 -2.91,1.617 -5.569,2.221 -2.659,0.604 -4.213,1.071 -4.664,1.403 -0.332,0.249 -0.497,0.551 -0.497,0.907 0,0.414 0.19,0.752 0.569,1.012 0.568,0.367 1.509,0.551 2.824,0.551 1.043,0 1.845,-0.196 2.407,-0.587 0.563,-0.39 0.944,-0.953 1.147,-1.687 l 4.708,0.87 c -0.475,1.646 -1.339,2.889 -2.595,3.731 -1.255,0.841 -3.174,1.261 -5.756,1.261 -2.712,0 -4.714,-0.557 -6.004,-1.67 -1.291,-1.113 -1.936,-2.487 -1.936,-4.121 0,-1.812 0.746,-3.228 2.238,-4.246 1.077,-0.734 3.63,-1.546 7.656,-2.434 0.865,-0.202 1.422,-0.421 1.67,-0.657 0.237,-0.249 0.356,-0.562 0.356,-0.942 0,-0.557 -0.219,-1 -0.658,-1.332 -0.651,-0.474 -1.622,-0.711 -2.913,-0.711 -1.173,0 -2.085,0.252 -2.736,0.756 -0.651,0.503 -1.083,1.24 -1.297,2.211 l -5.01,-0.764 c 0.462,-1.788 1.443,-3.204 2.941,-4.246 1.498,-1.042 3.532,-1.564 6.102,-1.564 2.83,0 4.968,0.622 6.413,1.867 1.446,1.243 2.167,2.729 2.167,4.458 0,1.587 -0.52,2.825 -1.563,3.713 m -23.325,1.439 c -0.036,1.445 -0.41,2.544 -1.119,3.296 -0.711,0.752 -1.576,1.128 -2.594,1.128 -1.09,0 -1.99,-0.397 -2.7,-1.191 -0.711,-0.793 -1.061,-1.871 -1.049,-3.233 z m 4.956,-3.056 h -12.507 c 0.036,-1.48 0.438,-2.632 1.208,-3.455 0.77,-0.823 1.729,-1.234 2.878,-1.234 0.782,0 1.439,0.213 1.972,0.639 0.533,0.426 0.936,1.114 1.208,2.061 l 4.974,-0.835 c -0.639,-1.824 -1.648,-3.213 -3.028,-4.166 -1.38,-0.953 -3.107,-1.431 -5.179,-1.431 -3.281,0 -5.709,1.073 -7.284,3.216 -1.243,1.718 -1.865,3.885 -1.865,6.502 0,3.127 0.817,5.576 2.452,7.347 1.634,1.77 3.7,2.655 6.2,2.655 2.807,0 5.021,-0.927 6.644,-2.78 1.623,-1.854 2.398,-4.693 2.327,-8.519 m -32.57,5.97 h 11.334 v -10.375 c -1.101,-1.066 -2.697,-2.005 -4.787,-2.816 -2.091,-0.811 -4.208,-1.217 -6.351,-1.217 -2.725,0 -5.099,0.571 -7.124,1.715 -2.026,1.142 -3.547,2.777 -4.566,4.903 -1.018,2.126 -1.528,4.438 -1.528,6.937 0,2.712 0.568,5.122 1.706,7.231 1.137,2.107 2.801,3.724 4.992,4.849 1.67,0.865 3.748,1.297 6.235,1.297 3.234,0 5.759,-0.677 7.578,-2.034 1.817,-1.356 2.987,-3.23 3.508,-5.623 l -5.223,-0.976 c -0.367,1.279 -1.057,2.289 -2.07,3.028 -1.012,0.74 -2.277,1.11 -3.793,1.11 -2.297,0 -4.124,-0.727 -5.48,-2.184 -1.356,-1.457 -2.034,-3.619 -2.034,-6.485 0,-3.091 0.686,-5.409 2.06,-6.955 1.374,-1.546 3.174,-2.318 5.401,-2.318 1.101,0 2.206,0.216 3.313,0.648 1.108,0.433 2.058,0.956 2.852,1.573 v 3.303 h -6.023 z" /></g><g
           transform="translate(245.2342,167.0481)"
           id="g24"><path
             id="path26"
             style="fill:#000000;fill-opacity:1;fill-rule:nonzero;stroke:none"
             d="m 0,0 c 0,-6.288 -0.235,-10.786 -0.705,-13.496 -0.469,-2.71 -1.861,-4.996 -4.173,-6.857 -2.313,-1.861 -5.745,-2.791 -10.298,-2.791 -4.481,0 -8.013,0.984 -10.596,2.954 -2.584,1.969 -4.22,4.58 -4.906,7.832 -0.398,2.024 -0.596,6.45 -0.596,13.279 V 22.06 H -47.317 V 1.572 c 0,-8.889 0.523,-15.61 1.571,-20.163 0.723,-3.072 2.223,-6.008 4.499,-8.807 2.277,-2.801 5.374,-5.078 9.296,-6.83 3.92,-1.752 9.675,-2.628 17.263,-2.628 6.287,0 11.382,0.804 15.284,2.411 3.903,1.608 7.019,3.767 9.35,6.477 2.33,2.71 3.929,6.034 4.797,9.973 0.867,3.938 1.3,10.678 1.3,20.217 V 22.06 L 0,22.06 Z m 391.451,-20 c -3.83,6.179 -6.875,10.479 -9.133,12.899 -2.259,2.421 -5.122,4.643 -8.591,6.667 6.974,1.011 12.213,3.46 15.719,7.345 3.504,3.883 5.257,8.807 5.257,14.769 0,4.697 -1.157,8.87 -3.469,12.521 -2.313,3.649 -5.393,6.187 -9.241,7.615 -3.848,1.427 -10.019,2.141 -18.51,2.141 h -33.767 v -79.458 h 16.043 v 66.016 h 12.521 c 6.504,0 10.407,-0.091 11.708,-0.271 2.601,-0.433 4.615,-1.473 6.043,-3.117 1.427,-1.645 2.14,-3.803 2.14,-6.477 0,-2.384 -0.542,-4.372 -1.626,-5.962 -1.084,-1.59 -2.583,-2.71 -4.498,-3.36 -1.916,-0.651 -6.721,-0.976 -14.418,-0.976 h -6.521 V -2.372 c 2.623,-0.095 4.624,-0.377 5.979,-0.853 1.699,-0.596 3.307,-1.699 4.825,-3.306 1.517,-1.609 4.336,-5.502 8.455,-11.68 l 11.598,-17.29 h 19.188 z M 272.067,30.515 h 42.873 v 13.442 h -58.917 v -79.458 h 60.435 v 13.387 H 272.067 Z M 311.958,12.9 H 277.414 V -0.488 h 34.544 z M 157.599,12.683 H 131.51 V -0.759 h 26.089 v -34.742 h 16.043 v 79.458 h -16.043 z m -47.48,-48.184 h 16.044 v 79.458 h -16.044 z m 96.108,78.807 h -16.043 v -78.807 h 55.935 v 13.387 H 206.227 Z M 82.462,-6.288 98.018,-11.22 c -2.385,-8.672 -6.351,-15.113 -11.897,-19.322 -5.547,-4.21 -12.584,-6.314 -21.111,-6.314 -10.552,0 -19.223,3.604 -26.016,10.813 -6.794,7.208 -10.19,17.064 -10.19,29.566 0,13.225 3.414,23.496 10.244,30.813 6.829,7.317 15.807,10.976 26.937,10.976 9.721,0 17.616,-2.873 23.686,-8.618 3.613,-3.397 6.323,-8.275 8.13,-14.634 L 81.92,18.266 c -0.94,4.119 -2.899,7.371 -5.88,9.755 -2.981,2.386 -6.604,3.578 -10.868,3.578 -5.889,0 -10.669,-2.114 -14.336,-6.342 -3.668,-4.227 -5.501,-11.075 -5.501,-20.542 0,-10.046 1.807,-17.2 5.42,-21.463 3.613,-4.264 8.311,-6.396 14.092,-6.396 4.263,0 7.931,1.355 11.003,4.065 3.071,2.71 5.275,6.974 6.612,12.791" /></g><g
           transform="translate(197.9168,205.1512)"
           id="g28"><path
             id="path30"
             style="fill:#000000;fill-opacity:1;fill-rule:nonzero;stroke:none"
             d="M 0,0 V 16.043 H 63.361 Z" /></g><g
           transform="translate(105.1273,186.9612)"
           id="g32"><path
             id="path34"
             style="fill:#000000;fill-opacity:1;fill-rule:nonzero;stroke:none"
             d="m 0,0 v -33.995 h 23.762 c 9.249,0 15.118,0.261 17.604,0.781 3.816,0.693 6.923,2.385 9.323,5.073 2.398,2.688 3.599,6.287 3.599,10.797 0,3.816 -0.926,7.053 -2.775,9.713 -1.851,2.658 -4.525,4.596 -8.022,5.81 C 39.992,-0.607 32.404,0 20.727,0 Z M 0,50.559 V 21.16 h 16.824 c 10.002,0 16.217,0.144 18.645,0.434 4.393,0.52 7.848,2.038 10.364,4.552 2.514,2.516 3.771,5.824 3.771,9.93 0,3.931 -1.083,7.125 -3.251,9.583 -2.168,2.457 -5.392,3.945 -9.67,4.466 -2.545,0.289 -9.857,0.434 -21.94,0.434 z m -25.669,21.16 h 50.818 c 10.06,0 17.561,-0.421 22.504,-1.258 4.944,-0.838 9.367,-2.588 13.269,-5.247 3.902,-2.659 7.154,-6.2 9.756,-10.623 2.602,-4.423 3.903,-9.381 3.903,-14.873 0,-5.955 -1.605,-11.418 -4.813,-16.39 -3.209,-4.973 -7.56,-8.702 -13.052,-11.187 7.747,-2.255 13.702,-6.1 17.865,-11.534 4.162,-5.435 6.243,-11.824 6.243,-19.165 0,-5.782 -1.344,-11.404 -4.032,-16.867 -2.688,-5.464 -6.361,-9.83 -11.014,-13.096 -4.654,-3.266 -10.393,-5.276 -17.214,-6.026 -4.279,-0.464 -14.599,-0.752 -30.96,-0.868 h -43.273 z" /></g></g></g></g></svg>