<?xml version="1.0" encoding="UTF-8" standalone="no"?>
<svg
   xmlns:dc="http://purl.org/dc/elements/1.1/"
   xmlns:cc="http://creativecommons.org/ns#"
   xmlns:rdf="http://www.w3.org/1999/02/22-rdf-syntax-ns#"
   xmlns:svg="http://www.w3.org/2000/svg"
   xmlns="http://www.w3.org/2000/svg"
   viewBox="0 0 967.79333 450.85068"
   height="450.85068"
   width="967.79333"
   xml:space="preserve"
   id="svg2"
   version="1.1"><metadata
     id="metadata8"><rdf:RDF><cc:Work
         rdf:about=""><dc:format>image/svg+xml</dc:format><dc:type
           rdf:resource="http://purl.org/dc/dcmitype/StillImage" /></cc:Work></rdf:RDF></metadata><defs
     id="defs6"><clipPath
       id="clipPath18"
       clipPathUnits="userSpaceOnUse"><path
         id="path16"
         d="M 0,338.138 H 725.845 V 0 H 0 Z" /></clipPath></defs><g
     transform="matrix(1.3333333,0,0,-1.3333333,0,450.85067)"
     id="g10"><g
       id="g12"><g
         clip-path="url(#clipPath18)"
         id="g14"><g
           transform="translate(641.1282,105.5022)"
           id="g20"><path
             id="path22"
             style="fill:#ff6a13;fill-opacity:1;fill-rule:nonzero;stroke:none"
             d="M 0,0 V -10.25 H -10.304 V 0 h -5.259 v -26.044 h 5.259 v 11.388 H 0 V -26.044 H 5.259 V 0 Z m -24.802,-16.664 c 0,2.156 -0.39,3.71 -1.172,4.664 -0.782,0.953 -1.783,1.43 -3.003,1.43 -1.196,0 -2.191,-0.465 -2.984,-1.395 -0.794,-0.93 -1.19,-2.342 -1.19,-4.237 0,-1.954 0.308,-3.4 0.923,-4.334 0.865,-1.327 2.014,-1.99 3.447,-1.99 1.101,0 2.04,0.47 2.816,1.412 0.776,0.941 1.163,2.425 1.163,4.45 m 2.861,7.417 c 1.504,-1.663 2.256,-4.053 2.256,-7.168 0,-3.222 -0.767,-5.703 -2.3,-7.443 -1.535,-1.742 -3.397,-2.613 -5.588,-2.613 -1.077,0 -2.141,0.271 -3.189,0.809 -1.048,0.539 -1.951,1.336 -2.709,2.39 v -2.772 h -4.636 V 0 h 4.992 v -9.38 c 1.539,1.753 3.363,2.629 5.471,2.629 2.297,0 4.199,-0.832 5.703,-2.496 m -23.531,1.652 c -0.959,0.563 -2.132,0.844 -3.517,0.844 -1.09,0 -2.115,-0.248 -3.074,-0.746 -0.959,-0.497 -1.853,-1.249 -2.682,-2.256 -0.568,1.007 -1.297,1.759 -2.186,2.256 -0.887,0.498 -1.936,0.746 -3.144,0.746 -2.274,0 -4.235,-1.001 -5.88,-3.002 v 2.576 h -4.602 v -18.867 h 4.993 v 9.167 c 0,1.813 0.133,3.109 0.399,3.891 0.267,0.781 0.708,1.38 1.324,1.794 0.615,0.415 1.309,0.622 2.078,0.622 0.64,0 1.147,-0.13 1.52,-0.391 0.373,-0.261 0.648,-0.657 0.825,-1.19 0.178,-0.534 0.267,-1.717 0.267,-3.553 v -10.34 h 4.992 v 9.061 c 0,1.776 0.136,3.076 0.409,3.899 0.272,0.823 0.716,1.448 1.332,1.874 0.615,0.427 1.272,0.64 1.972,0.64 0.96,0 1.67,-0.356 2.132,-1.066 0.343,-0.545 0.515,-1.753 0.515,-3.625 v -10.783 h 4.992 v 12.063 c 0,1.8 -0.172,3.103 -0.515,3.908 -0.474,1.09 -1.191,1.916 -2.15,2.478 m -30.438,-8.838 c -1.054,0.876 -2.91,1.617 -5.569,2.221 -2.659,0.604 -4.213,1.071 -4.664,1.403 -0.332,0.249 -0.497,0.551 -0.497,0.907 0,0.414 0.19,0.752 0.569,1.012 0.568,0.367 1.509,0.551 2.824,0.551 1.043,0 1.845,-0.196 2.407,-0.587 0.563,-0.39 0.944,-0.953 1.147,-1.687 l 4.708,0.87 c -0.475,1.646 -1.339,2.889 -2.595,3.731 -1.255,0.841 -3.174,1.261 -5.756,1.261 -2.712,0 -4.714,-0.557 -6.004,-1.67 -1.291,-1.113 -1.936,-2.487 -1.936,-4.121 0,-1.812 0.746,-3.228 2.238,-4.246 1.077,-0.734 3.63,-1.546 7.656,-2.434 0.865,-0.202 1.422,-0.421 1.67,-0.657 0.237,-0.249 0.356,-0.562 0.356,-0.942 0,-0.557 -0.219,-1 -0.658,-1.332 -0.651,-0.474 -1.622,-0.711 -2.913,-0.711 -1.173,0 -2.085,0.252 -2.736,0.756 -0.651,0.503 -1.083,1.24 -1.297,2.211 l -5.01,-0.764 c 0.462,-1.788 1.443,-3.204 2.941,-4.246 1.498,-1.042 3.532,-1.564 6.102,-1.564 2.83,0 4.968,0.622 6.413,1.867 1.446,1.243 2.167,2.729 2.167,4.458 0,1.587 -0.52,2.825 -1.563,3.713 m -23.325,1.439 c -0.036,1.445 -0.41,2.544 -1.119,3.296 -0.711,0.752 -1.576,1.128 -2.594,1.128 -1.09,0 -1.99,-0.397 -2.7,-1.191 -0.711,-0.793 -1.061,-1.871 -1.049,-3.233 z m 4.956,-3.056 h -12.507 c 0.036,-1.48 0.438,-2.632 1.208,-3.455 0.77,-0.823 1.729,-1.234 2.878,-1.234 0.782,0 1.439,0.213 1.972,0.639 0.533,0.426 0.936,1.114 1.208,2.061 l 4.974,-0.835 c -0.639,-1.824 -1.648,-3.213 -3.028,-4.166 -1.38,-0.953 -3.107,-1.431 -5.179,-1.431 -3.281,0 -5.709,1.073 -7.284,3.216 -1.243,1.718 -1.865,3.885 -1.865,6.502 0,3.127 0.817,5.576 2.452,7.347 1.634,1.77 3.7,2.655 6.2,2.655 2.807,0 5.021,-0.927 6.644,-2.78 1.623,-1.854 2.398,-4.693 2.327,-8.519 m -32.57,5.97 h 11.334 v -10.375 c -1.101,-1.066 -2.697,-2.005 -4.787,-2.816 -2.091,-0.811 -4.208,-1.217 -6.351,-1.217 -2.725,0 -5.099,0.571 -7.124,1.715 -2.026,1.142 -3.547,2.777 -4.566,4.903 -1.018,2.126 -1.528,4.438 -1.528,6.937 0,2.712 0.568,5.122 1.706,7.231 1.137,2.107 2.801,3.724 4.992,4.849 1.67,0.865 3.748,1.297 6.235,1.297 3.234,0 5.759,-0.677 7.578,-2.034 1.817,-1.356 2.987,-3.23 3.508,-5.623 l -5.223,-0.976 c -0.367,1.279 -1.057,2.289 -2.07,3.028 -1.012,0.74 -2.277,1.11 -3.793,1.11 -2.297,0 -4.124,-0.727 -5.48,-2.184 -1.356,-1.457 -2.034,-3.619 -2.034,-6.485 0,-3.091 0.686,-5.409 2.06,-6.955 1.374,-1.546 3.174,-2.318 5.401,-2.318 1.101,0 2.206,0.216 3.313,0.648 1.108,0.433 2.058,0.956 2.852,1.573 v 3.303 h -6.023 z" /></g><g
           transform="translate(517.3011,144.9339)"
           id="g24"><path
             id="path26"
             style="fill:#326295;fill-opacity:1;fill-rule:nonzero;stroke:none"
             d="M 0,0 H 44.391 V -13.387 H -16.044 V 66.071 H 42.873 V 52.629 H 0 Z m -65.84,0 h 39.892 V -13.387 H -81.883 V 65.42 h 16.043 z m -48.628,66.071 h 16.043 v -79.458 h -16.043 v 34.742 h -26.089 v 13.442 h 26.089 z M 129.086,-13.387 H 109.898 L 98.3,3.903 c -4.119,6.179 -6.938,10.072 -8.455,11.68 -1.518,1.607 -3.126,2.71 -4.824,3.306 -1.356,0.476 -3.357,0.758 -5.98,0.854 v 12.723 h 6.522 c 7.697,0 12.501,0.326 14.417,0.976 1.916,0.651 3.415,1.77 4.499,3.361 1.084,1.589 1.625,3.577 1.625,5.962 0,2.673 -0.713,4.832 -2.14,6.477 -1.428,1.644 -3.442,2.683 -6.043,3.116 -1.301,0.181 -5.204,0.271 -11.708,0.271 H 73.692 V -13.387 H 57.649 v 79.458 h 33.767 c 8.491,0 14.662,-0.714 18.51,-2.141 3.848,-1.428 6.928,-3.966 9.241,-7.615 2.312,-3.65 3.469,-7.824 3.469,-12.521 0,-5.961 -1.753,-10.885 -5.257,-14.769 -3.506,-3.885 -8.745,-6.334 -15.719,-7.344 3.469,-2.025 6.332,-4.247 8.591,-6.667 2.258,-2.421 5.303,-6.721 9.133,-12.9 z M 5.348,35.014 H 39.892 V 21.627 H 5.348 Z m -277.415,9.16 h 16.044 V 24.336 c 0,-9.539 -0.434,-16.278 -1.301,-20.216 -0.867,-3.939 -2.467,-7.264 -4.797,-9.974 -2.331,-2.709 -5.447,-4.869 -9.35,-6.477 -3.902,-1.607 -8.997,-2.411 -15.284,-2.411 -7.588,0 -13.343,0.876 -17.263,2.628 -3.921,1.753 -7.019,4.029 -9.295,6.83 -2.277,2.8 -3.777,5.736 -4.499,8.807 -1.049,4.553 -1.572,11.274 -1.572,20.163 v 20.488 h 16.043 V 23.036 c 0,-6.83 0.198,-11.256 0.596,-13.28 0.686,-3.252 2.322,-5.862 4.906,-7.832 2.583,-1.969 6.115,-2.954 10.596,-2.954 4.553,0 7.985,0.93 10.298,2.792 2.312,1.861 3.704,4.146 4.174,6.856 0.469,2.71 0.704,7.209 0.704,13.496 z m 110.119,21.897 h 16.044 v -79.458 h -16.044 z m -27.656,-50.244 15.555,-4.932 c -2.385,-8.672 -6.35,-15.114 -11.897,-19.323 -5.547,-4.21 -12.584,-6.314 -21.111,-6.314 -10.551,0 -19.223,3.604 -26.016,10.813 -6.794,7.208 -10.19,17.064 -10.19,29.566 0,13.225 3.414,23.496 10.244,30.813 6.829,7.318 15.808,10.976 26.937,10.976 9.721,0 17.616,-2.873 23.686,-8.618 3.613,-3.397 6.323,-8.275 8.13,-14.634 l -15.88,-3.794 c -0.94,4.119 -2.9,7.371 -5.881,9.756 -2.981,2.385 -6.604,3.577 -10.868,3.577 -5.889,0 -10.668,-2.113 -14.335,-6.341 -3.668,-4.228 -5.502,-11.076 -5.502,-20.542 0,-10.046 1.807,-17.201 5.42,-21.464 3.613,-4.264 8.311,-6.396 14.092,-6.396 4.263,0 7.931,1.355 11.003,4.066 3.071,2.71 5.276,6.973 6.613,12.791 m -171.881,-1.941 c -2.4,-2.688 -5.507,-4.379 -9.323,-5.073 -2.486,-0.52 -8.355,-0.78 -17.604,-0.78 h -23.762 v 33.994 h 20.727 c 11.677,0 19.265,-0.607 22.764,-1.82 3.497,-1.215 6.171,-3.152 8.022,-5.811 1.849,-2.66 2.775,-5.897 2.775,-9.713 0,-4.509 -1.201,-8.108 -3.599,-10.797 m -50.689,78.7 h 14.743 c 12.083,0 19.396,-0.145 21.94,-0.434 4.279,-0.52 7.502,-2.009 9.67,-4.466 2.168,-2.458 3.252,-5.651 3.252,-9.582 0,-4.106 -1.258,-7.415 -3.772,-9.93 -2.515,-2.515 -5.971,-4.032 -10.364,-4.553 -2.428,-0.29 -8.643,-0.433 -18.645,-0.433 h -16.824 z m 56.716,-38.418 c 5.492,2.485 9.843,6.214 13.052,11.187 3.208,4.972 4.813,10.436 4.813,16.391 0,5.492 -1.301,10.45 -3.903,14.873 -2.602,4.422 -5.854,7.963 -9.756,10.623 -3.902,2.658 -8.325,4.408 -13.269,5.246 -4.942,0.838 -12.444,1.258 -22.503,1.258 h -50.819 V -13.387 h 43.274 c 16.36,0.115 26.68,0.403 30.959,0.867 6.821,0.75 12.56,2.76 17.214,6.027 4.653,3.265 8.326,7.632 11.014,13.095 2.688,5.463 4.032,11.085 4.032,16.867 0,7.342 -2.081,13.731 -6.243,19.166 -4.163,5.433 -10.118,9.279 -17.865,11.533" /></g><g
           transform="translate(197.9168,205.1512)"
           id="g28"><path
             id="path30"
             style="fill:#ff6a13;fill-opacity:1;fill-rule:nonzero;stroke:none"
             d="M 0,0 V 16.043 H 63.361 Z" /></g></g></g></g></svg>