<?xml version="1.0" encoding="UTF-8"?>
<!DOCTYPE svg PUBLIC "-//W3C//DTD SVG 1.1//EN" "http://www.w3.org/Graphics/SVG/1.1/DTD/svg11.dtd">
<!-- Creator: CorelDRAW X7 -->
<svg xmlns="http://www.w3.org/2000/svg" xml:space="preserve" width="660.4mm" height="435.19mm" version="1.1" style="shape-rendering:geometricPrecision; text-rendering:geometricPrecision; image-rendering:optimizeQuality; fill-rule:evenodd; clip-rule:evenodd"
viewBox="0 0 52168 34378"
 xmlns:xlink="http://www.w3.org/1999/xlink">
 <defs>
  <style type="text/css">
   <![CDATA[
    .fil3 {fill:none}
    .fil4 {fill:#002250}
    .fil9 {fill:#006397}
    .fil1 {fill:#E2EBF2}
    .fil2 {fill:#E5EEF3}
    .fil0 {fill:#EAF3F7}
    .fil7 {fill:#FEFEFE}
    .fil5 {fill:#FF6600}
    .fil11 {fill:#FF6800}
    .fil8 {fill:#006397;fill-rule:nonzero}
    .fil6 {fill:#FEFEFE;fill-rule:nonzero}
    .fil10 {fill:#FF6800;fill-rule:nonzero}
   ]]>
  </style>
   <clipPath id="id0">
    <path d="M0 34378l52168 0 0 -34378 -52168 0 0 34378z"/>
   </clipPath>
 </defs>
 <g id="Слой_x0020_1">
  <metadata id="CorelCorpID_0Corel-Layer"/>
  <polygon class="fil0" points="0,34378 52168,34378 52168,0 0,0 "/>
  <g style="clip-path:url(#id0)">
   <g id="_554791552">
    <g>
     <g>
      <path id="1" class="fil1" d="M48443 6791c-2404,-2315 -7525,-5163 -7525,-5163 0,0 3428,3783 7525,5163z"/>
      <path class="fil2" d="M48443 6791c-3418,-1840 -7525,-5163 -7525,-5163 0,0 3428,3783 7525,5163z"/>
     </g>
     <g>
      <path class="fil1" d="M40227 1055c-2289,-2428 -7266,-5520 -7266,-5520 0,0 3241,3945 7266,5520z"/>
      <path class="fil2" d="M40227 1055c-3324,-2002 -7266,-5520 -7266,-5520 0,0 3241,3945 7266,5520z"/>
     </g>
     <g>
      <path class="fil1" d="M57411 12144c-2555,-2147 -7856,-4642 -7856,-4642 0,0 3675,3543 7856,4642z"/>
      <path class="fil2" d="M57411 12144c-3534,-1604 -7856,-4642 -7856,-4642 0,0 3675,3543 7856,4642z"/>
     </g>
     <g>
      <path class="fil1" d="M44161 1240c-2328,-2390 -7356,-5399 -7356,-5399 0,0 3306,3890 7356,5399z"/>
      <path class="fil2" d="M44161 1240c-3357,-1947 -7356,-5399 -7356,-5399 0,0 3306,3890 7356,5399z"/>
     </g>
     <g>
      <path class="fil1" d="M52955 6876c-2485,-2227 -7704,-4890 -7704,-4890 0,0 3560,3658 7704,4890z"/>
      <path class="fil2" d="M52955 6876c-3481,-1715 -7704,-4890 -7704,-4890 0,0 3560,3658 7704,4890z"/>
     </g>
     <g>
      <path class="fil1" d="M48036 527c-2328,-2390 -7356,-5399 -7356,-5399 0,0 3306,3890 7356,5399z"/>
      <path class="fil2" d="M48036 527c-3357,-1947 -7356,-5399 -7356,-5399 0,0 3306,3890 7356,5399z"/>
     </g>
     <g>
      <path class="fil1" d="M56830 6163c-2485,-2227 -7704,-4890 -7704,-4890 0,0 3560,3658 7704,4890z"/>
      <path class="fil2" d="M56830 6163c-3481,-1716 -7704,-4890 -7704,-4890 0,0 3560,3658 7704,4890z"/>
     </g>
     <g>
      <path class="fil1" d="M45000 7798c-2308,-2410 -7309,-5463 -7309,-5463 0,0 3272,3919 7309,5463z"/>
      <path class="fil2" d="M45000 7798c-3340,-1976 -7309,-5463 -7309,-5463 0,0 3272,3919 7309,5463z"/>
     </g>
     <g>
      <path class="fil1" d="M35909 752c-1935,-2720 -6441,-6465 -6441,-6465 0,0 2670,4352 6441,6465z"/>
      <path class="fil2" d="M35909 752c-3019,-2440 -6441,-6465 -6441,-6465 0,0 2670,4352 6441,6465z"/>
     </g>
     <g>
      <path class="fil1" d="M53957 13030c-2559,-2141 -7867,-4624 -7867,-4624 0,0 3684,3534 7867,4624z"/>
      <path class="fil2" d="M53957 13030c-3537,-1596 -7867,-4624 -7867,-4624 0,0 3684,3534 7867,4624z"/>
     </g>
     <g>
      <path class="fil1" d="M49906 13740c-2560,-2141 -7867,-4624 -7867,-4624 0,0 3684,3535 7867,4624z"/>
      <path class="fil2" d="M49906 13740c-3538,-1596 -7867,-4624 -7867,-4624 0,0 3684,3535 7867,4624z"/>
     </g>
     <g>
      <path class="fil1" d="M40631 7398c-2105,-2449 -6848,-5586 -6848,-5586 0,0 2944,3974 6848,5586z"/>
      <path class="fil2" d="M40631 7398c-3172,-2032 -6848,-5586 -6848,-5586 0,0 2944,3974 6848,5586z"/>
     </g>
     <g>
      <path class="fil1" d="M32857 655c-1945,-2711 -6466,-6438 -6466,-6438 0,0 2687,4340 6466,6438z"/>
      <path class="fil2" d="M32857 655c-3028,-2427 -6466,-6438 -6466,-6438 0,0 2687,4340 6466,6438z"/>
     </g>
     <g>
      <path class="fil1" d="M32690 7095c-1737,-2849 -5560,-7028 -5560,-7028 0,0 1948,4654 5560,7028z"/>
      <path class="fil2" d="M32690 7095c-2838,-2646 -5560,-7028 -5560,-7028 0,0 1948,4654 5560,7028z"/>
     </g>
     <g>
      <path class="fil1" d="M36155 7579c-1894,-2747 -5945,-6705 -5945,-6705 0,0 2206,4538 5945,6705z"/>
      <path class="fil2" d="M36155 7579c-2982,-2483 -5945,-6705 -5945,-6705 0,0 2206,4538 5945,6705z"/>
     </g>
     <g>
      <path class="fil1" d="M53292 18776c-2643,-2037 -7710,-4569 -7710,-4569 0,0 3487,3648 7710,4569z"/>
      <path class="fil2" d="M53292 18776c-3599,-1453 -7710,-4569 -7710,-4569 0,0 3487,3648 7710,4569z"/>
     </g>
     <g>
      <path class="fil1" d="M49814 19836c-2643,-2037 -7710,-4569 -7710,-4569 0,0 3487,3647 7710,4569z"/>
      <path class="fil2" d="M49814 19836c-3599,-1453 -7710,-4569 -7710,-4569 0,0 3487,3647 7710,4569z"/>
     </g>
     <g>
      <path class="fil1" d="M29738 7258c-1517,-2973 -5013,-7429 -5013,-7429 0,0 1590,4789 5013,7429z"/>
      <path class="fil2" d="M29738 7258c-2631,-2854 -5013,-7429 -5013,-7429 0,0 1590,4789 5013,7429z"/>
     </g>
     <g>
      <path class="fil1" d="M26467 6141c-1373,-3041 -4650,-7661 -4650,-7661 0,0 1358,4859 4650,7661z"/>
      <path class="fil2" d="M26467 6141c-2490,-2976 -4650,-7661 -4650,-7661 0,0 1358,4859 4650,7661z"/>
     </g>
     <g>
      <path class="fil1" d="M23599 5362c-1092,-3153 -3940,-8049 -3940,-8049 0,0 915,4962 3940,8049z"/>
      <path class="fil2" d="M23599 5362c-2211,-3189 -3940,-8049 -3940,-8049 0,0 915,4962 3940,8049z"/>
     </g>
     <g>
      <path class="fil1" d="M54897 26072c-2643,-2037 -7710,-4569 -7710,-4569 0,0 3487,3647 7710,4569z"/>
      <path class="fil2" d="M54897 26072c-3598,-1453 -7710,-4569 -7710,-4569 0,0 3487,3647 7710,4569z"/>
     </g>
     <g>
      <path class="fil1" d="M50400 26762c-2643,-2037 -7710,-4568 -7710,-4568 0,0 3487,3647 7710,4568z"/>
      <path class="fil2" d="M50400 26762c-3599,-1453 -7710,-4568 -7710,-4568 0,0 3487,3647 7710,4568z"/>
     </g>
     <g>
      <path class="fil1" d="M55706 33087c-2643,-2037 -7710,-4568 -7710,-4568 0,0 3487,3647 7710,4568z"/>
      <path class="fil2" d="M55706 33087c-3598,-1453 -7710,-4568 -7710,-4568 0,0 3487,3647 7710,4568z"/>
     </g>
     <g>
      <path class="fil1" d="M45998 27420c-2643,-2037 -7710,-4568 -7710,-4568 0,0 3487,3647 7710,4568z"/>
      <path class="fil2" d="M45998 27420c-3598,-1453 -7710,-4568 -7710,-4568 0,0 3487,3647 7710,4568z"/>
     </g>
     <g>
      <path class="fil1" d="M51391 34066c-2643,-2037 -7710,-4569 -7710,-4569 0,0 3487,3647 7710,4569z"/>
      <path class="fil2" d="M51391 34066c-3598,-1453 -7710,-4569 -7710,-4569 0,0 3487,3647 7710,4569z"/>
     </g>
     <g>
      <path class="fil1" d="M41514 27933c-2533,-2172 -7461,-4965 -7461,-4965 0,0 3291,3824 7461,4965z"/>
      <path class="fil2" d="M41514 27933c-3518,-1639 -7461,-4964 -7461,-4964 0,0 3291,3823 7461,4964z"/>
     </g>
     <g>
      <path class="fil1" d="M34004 14351c-2007,-2666 -6221,-6451 -6221,-6451 0,0 2394,4441 6221,6451z"/>
      <path class="fil2" d="M34004 14351c-3083,-2356 -6221,-6451 -6221,-6451 0,0 2394,4441 6221,6451z"/>
     </g>
     <g>
      <path class="fil1" d="M30250 15214c-1574,-2943 -5154,-7331 -5154,-7331 0,0 1682,4757 5154,7331z"/>
      <path class="fil2" d="M30250 15214c-2684,-2802 -5154,-7331 -5154,-7331 0,0 1682,4757 5154,7331z"/>
     </g>
     <g>
      <path class="fil1" d="M37513 28798c-1942,-2714 -6062,-6600 -6062,-6600 0,0 2285,4498 6062,6600z"/>
      <path class="fil2" d="M37513 28798c-3025,-2430 -6062,-6600 -6062,-6600 0,0 2285,4498 6062,6600z"/>
     </g>
     <g>
      <path class="fil1" d="M47822 35929c-2505,-2205 -7397,-5061 -7397,-5061 0,0 3242,3866 7397,5061z"/>
      <path class="fil2" d="M47822 35929c-3497,-1685 -7397,-5061 -7397,-5061 0,0 3242,3866 7397,5061z"/>
     </g>
     <g>
      <path class="fil1" d="M42675 35766c-2380,-2369 -7325,-5164 -7325,-5164 0,0 2874,4346 7325,5164z"/>
      <path class="fil2" d="M42675 35766c-3607,-1546 -7325,-5164 -7325,-5164 0,0 2874,4346 7325,5164z"/>
     </g>
     <g>
      <path class="fil1" d="M39233 37124c-2254,-2490 -7045,-5539 -7045,-5539 0,0 2642,4490 7045,5539z"/>
      <path class="fil2" d="M39233 37124c-3522,-1733 -7045,-5539 -7045,-5539 0,0 2642,4490 7045,5539z"/>
     </g>
     <g>
      <path class="fil1" d="M34326 29670c-1877,-2785 -6186,-6484 -6186,-6484 0,0 1978,4820 6186,6484z"/>
      <path class="fil2" d="M34326 29670c-3239,-2215 -6186,-6484 -6186,-6484 0,0 1978,4820 6186,6484z"/>
     </g>
     <g>
      <path class="fil1" d="M30881 30443c-1474,-3018 -5232,-7277 -5232,-7277 0,0 1294,5047 5232,7277z"/>
      <path class="fil2" d="M30881 30443c-2903,-2642 -5232,-7277 -5232,-7277 0,0 1294,5047 5232,7277z"/>
     </g>
     <g>
      <path class="fil1" d="M27330 14434c-1311,-3092 -4835,-7546 -4835,-7546 0,0 1021,5109 4835,7546z"/>
      <path class="fil2" d="M27330 14434c-2757,-2793 -4835,-7546 -4835,-7546 0,0 1021,5109 4835,7546z"/>
     </g>
     <g>
      <path class="fil1" d="M22860 13360c-916,-3231 -3859,-8088 -3859,-8088 0,0 379,5196 3859,8088z"/>
      <path class="fil2" d="M22860 13360c-2388,-3114 -3859,-8088 -3859,-8088 0,0 379,5196 3859,8088z"/>
     </g>
     <g>
      <path class="fil1" d="M24562 14452c-916,-3231 -3859,-8088 -3859,-8088 0,0 378,5196 3859,8088z"/>
      <path class="fil2" d="M24562 14452c-2388,-3114 -3859,-8088 -3859,-8088 0,0 378,5196 3859,8088z"/>
     </g>
     <g>
      <path class="fil1" d="M21961 4849c-916,-3231 -3859,-8088 -3859,-8088 0,0 378,5196 3859,8088z"/>
      <path class="fil2" d="M21961 4849c-2388,-3114 -3859,-8088 -3859,-8088 0,0 378,5196 3859,8088z"/>
     </g>
     <g>
      <path class="fil1" d="M19923 4212c-398,-3334 -2543,-8593 -2543,-8593 0,0 -442,5191 2543,8593z"/>
      <path class="fil2" d="M19923 4212c-1871,-3450 -2543,-8593 -2543,-8593 0,0 -442,5191 2543,8593z"/>
     </g>
     <g>
      <path class="fil1" d="M17926 2428c146,-3355 -1120,-8892 -1120,-8892 0,0 -1275,5052 1120,8892z"/>
      <path class="fil2" d="M17926 2428c-1288,-3707 -1121,-8892 -1121,-8892 0,0 -1274,5052 1121,8892z"/>
     </g>
     <g>
      <path class="fil1" d="M16268 1203c826,-3255 713,-8934 713,-8934 0,0 -2276,4687 -713,8934z"/>
      <path class="fil2" d="M16268 1203c-507,-3892 713,-8934 713,-8934 0,0 -2276,4687 -713,8934z"/>
     </g>
     <g>
      <path class="fil1" d="M12519 9685c-298,-3906 1665,-10309 1665,-10309 0,0 2166,5909 -1665,10309z"/>
      <path class="fil2" d="M12519 9685c2031,-4276 1665,-10309 1665,-10309 0,0 2166,5909 -1665,10309z"/>
     </g>
     <g>
      <path class="fil1" d="M10425 8365c-117,-4086 2246,-10664 2246,-10664 0,0 1965,6268 -2246,10664z"/>
      <path class="fil2" d="M10425 8365c2329,-4356 2246,-10664 2246,-10664 0,0 1965,6268 -2246,10664z"/>
     </g>
     <g>
      <path class="fil1" d="M7952 6675c356,-3970 3401,-10067 3401,-10067 0,0 1182,6295 -3401,10067z"/>
      <path class="fil2" d="M7952 6675c2756,-3950 3402,-10067 3402,-10067 0,0 1181,6295 -3402,10067z"/>
     </g>
     <g>
      <path class="fil1" d="M5409 4467c299,-3335 2857,-8457 2857,-8457 0,0 993,5288 -2857,8457z"/>
      <path class="fil2" d="M5409 4467c2315,-3318 2857,-8457 2857,-8457 0,0 993,5288 -2857,8457z"/>
     </g>
     <g>
      <path class="fil1" d="M2817 454c299,-3335 2857,-8457 2857,-8457 0,0 993,5288 -2857,8457z"/>
      <path class="fil2" d="M2817 454c2315,-3318 2857,-8457 2857,-8457 0,0 993,5288 -2857,8457z"/>
     </g>
     <g>
      <path class="fil1" d="M-825 11044c300,-3335 2857,-8456 2857,-8456 0,0 993,5287 -2857,8456z"/>
      <path class="fil2" d="M-825 11044c2315,-3318 2857,-8456 2857,-8456 0,0 993,5287 -2857,8456z"/>
     </g>
     <g>
      <path class="fil1" d="M2184 14792c215,-3342 2644,-8526 2644,-8526 0,0 1125,5261 -2644,8526z"/>
      <path class="fil2" d="M2184 14792c2231,-3376 2644,-8526 2644,-8526 0,0 1125,5261 -2644,8526z"/>
     </g>
     <g>
      <path class="fil1" d="M5372 17701c-85,-3348 1870,-8729 1870,-8729 0,0 1591,5140 -1870,8729z"/>
      <path class="fil2" d="M5372 17701c1920,-3562 1870,-8729 1870,-8729 0,0 1591,5140 -1870,8729z"/>
     </g>
     <g>
      <path class="fil1" d="M8682 17782c-85,-3348 1870,-8729 1870,-8729 0,0 1592,5140 -1870,8729z"/>
      <path class="fil2" d="M8682 17782c1920,-3562 1870,-8729 1870,-8729 0,0 1592,5140 -1870,8729z"/>
     </g>
     <g>
      <path class="fil1" d="M33226 39020c-1257,-3103 -5195,-7259 -5195,-7259 0,0 590,5348 5195,7259z"/>
      <path class="fil2" d="M33226 39020c-3181,-2500 -5195,-7258 -5195,-7258 0,0 590,5347 5195,7258z"/>
     </g>
     <g>
      <path class="fil1" d="M27290 31186c-1257,-3104 -5195,-7259 -5195,-7259 0,0 589,5348 5195,7259z"/>
      <path class="fil2" d="M27290 31186c-3181,-2501 -5195,-7259 -5195,-7259 0,0 589,5348 5195,7259z"/>
     </g>
     <g>
      <path class="fil1" d="M28880 39596c-1257,-3103 -5195,-7259 -5195,-7259 0,0 590,5348 5195,7259z"/>
      <path class="fil2" d="M28880 39596c-3181,-2501 -5195,-7259 -5195,-7259 0,0 590,5348 5195,7259z"/>
     </g>
     <g>
      <path class="fil1" d="M24468 40042c-1257,-3103 -5195,-7259 -5195,-7259 0,0 590,5348 5195,7259z"/>
      <path class="fil2" d="M24468 40042c-3180,-2501 -5195,-7259 -5195,-7259 0,0 590,5348 5195,7259z"/>
     </g>
     <g>
      <path class="fil1" d="M19578 39875c-1257,-3104 -5196,-7259 -5196,-7259 0,0 590,5348 5196,7259z"/>
      <path class="fil2" d="M19578 39875c-3181,-2501 -5196,-7259 -5196,-7259 0,0 590,5348 5196,7259z"/>
     </g>
     <g>
      <path class="fil1" d="M12148 40927c-112,-3346 -2378,-8603 -2378,-8603 0,0 -1288,5223 2378,8603z"/>
      <path class="fil2" d="M12148 40927c-2125,-3443 -2378,-8603 -2378,-8603 0,0 -1288,5223 2378,8603z"/>
     </g>
     <g>
      <path class="fil1" d="M6883 40201c-111,-3346 -2378,-8603 -2378,-8603 0,0 -1288,5223 2378,8603z"/>
      <path class="fil2" d="M6883 40201c-2125,-3443 -2378,-8603 -2378,-8603 0,0 -1288,5223 2378,8603z"/>
     </g>
     <g>
      <path class="fil1" d="M4324 29142c212,-3341 -1536,-8793 -1536,-8793 0,0 -1787,5075 1536,8793z"/>
      <path class="fil2" d="M4324 29142c-1783,-3632 -1536,-8793 -1536,-8793 0,0 -1787,5075 1536,8793z"/>
     </g>
     <g>
      <path class="fil1" d="M9089 30773c212,-3342 -1536,-8794 -1536,-8794 0,0 -1786,5075 1536,8794z"/>
      <path class="fil2" d="M9089 30773c-1783,-3633 -1536,-8794 -1536,-8794 0,0 -1786,5075 1536,8794z"/>
     </g>
     <g>
      <path class="fil1" d="M13979 30837c-77,-3347 -2288,-8628 -2288,-8628 0,0 -1342,5210 2288,8628z"/>
      <path class="fil2" d="M13979 30837c-2089,-3465 -2288,-8628 -2288,-8628 0,0 -1342,5210 2288,8628z"/>
     </g>
     <g>
      <path class="fil1" d="M18687 31394c-743,-3496 -4107,-8597 -4107,-8597 0,0 -377,5730 4107,8597z"/>
      <path class="fil2" d="M18687 31394c-2877,-3221 -4107,-8597 -4107,-8597 0,0 -377,5730 4107,8597z"/>
     </g>
     <g>
      <path class="fil1" d="M22802 31120c-743,-3496 -4107,-8597 -4107,-8597 0,0 -377,5730 4107,8597z"/>
      <path class="fil2" d="M22802 31120c-2877,-3221 -4107,-8597 -4107,-8597 0,0 -377,5730 4107,8597z"/>
     </g>
     <g>
      <path class="fil1" d="M19898 12454c-76,-3347 -2288,-8628 -2288,-8628 0,0 -1342,5210 2288,8628z"/>
      <path class="fil2" d="M19898 12454c-2089,-3465 -2288,-8628 -2288,-8628 0,0 -1342,5210 2288,8628z"/>
     </g>
     <g>
      <path class="fil1" d="M18172 11548c221,-3341 -1512,-8797 -1512,-8797 0,0 -1800,5070 1512,8797z"/>
      <path class="fil2" d="M18172 11548c-1773,-3637 -1512,-8797 -1512,-8797 0,0 -1800,5070 1512,8797z"/>
     </g>
     <g>
      <path class="fil1" d="M14501 10136c-581,-3297 553,-8909 553,-8909 0,0 2337,4846 -553,8909z"/>
      <path class="fil2" d="M14501 10136c1370,-3807 553,-8909 553,-8909 0,0 2337,4846 -553,8909z"/>
     </g>
    </g>
   </g>
  </g>
  <polygon class="fil3" points="0,34378 52168,34378 52168,0 0,0 "/>
  <g id="_591118504">
   <polygon class="fil4" points="2754,12777 26379,7860 29107,20968 5482,25885 "/>
   <polygon class="fil5" points="2754,12777 6037,12093 5482,25885 "/>
   <path class="fil6" d="M20085 20191l135 -27 -43 496 -154 33 -123 -263 -9 290 -154 32 -238 -438 144 -30 141 313 4 -343 152 -32 141 314 4 -345zm726 -151l135 -28 -42 498 -154 32 -124 -264 -8 291 -154 32 -238 -439 144 -30 141 314 3 -344 152 -32 141 315 4 -345zm727 -151l135 -28 -43 497 -154 32 -123 -263 -8 291 -155 32 -237 -439 143 -30 141 314 4 -344 152 -32 140 314 5 -344zm405 323c4,22 0,42 -12,60 -11,18 -28,30 -50,35 -22,3 -43,0 -61,-12 -18,-12 -29,-29 -34,-51 -5,-22 -1,-43 11,-61 12,-18 29,-29 51,-34 22,-4 42,0 61,11 18,12 29,30 34,52zm394 -155c17,-25 22,-55 14,-92 -8,-37 -24,-64 -49,-80 -25,-15 -51,-20 -77,-15 -27,6 -49,21 -65,45 -17,24 -22,55 -14,91 7,37 24,64 49,80 25,16 51,21 78,15 27,-5 48,-20 64,-44zm-227 -223c23,-51 64,-83 123,-95 60,-12 116,0 166,36 51,36 83,90 98,159 14,71 6,132 -26,185 -32,54 -78,86 -137,99 -58,12 -109,-3 -154,-45l14 68 -142 30 -130 -621 144 -30 44 214zm747 -219l144 -31 97 469 -144 30 -14 -70c-19,57 -61,90 -126,104 -54,11 -101,2 -142,-26 -41,-29 -67,-74 -80,-136l-57 -273 143 -30 53 254c6,30 19,52 39,65 19,13 42,17 70,11 28,-6 48,-18 61,-38 12,-20 16,-45 9,-75l-53 -254zm567 376c-68,15 -128,4 -181,-31 -53,-35 -87,-89 -102,-161 -15,-73 -6,-136 28,-188 35,-52 86,-85 155,-99 69,-14 130,-5 185,28 54,33 89,87 104,163 4,17 6,32 7,46l-323 67c7,20 20,35 39,45 18,10 36,13 54,9 19,-3 32,-8 40,-14 9,-5 14,-10 17,-15 4,-5 8,-12 13,-21l156 -32c-4,49 -23,93 -57,130 -35,37 -79,61 -135,73zm31 -301c-7,-22 -20,-38 -39,-48 -20,-10 -41,-12 -64,-8 -23,5 -41,16 -54,33 -13,17 -19,37 -18,59l175 -36zm318 160c-53,-34 -87,-88 -102,-160 -15,-73 -6,-136 29,-188 34,-53 85,-86 154,-100 58,-12 109,-8 154,12 46,20 81,54 104,105l-154 32c-20,-25 -45,-34 -75,-28 -30,6 -51,21 -61,46 -10,25 -12,55 -5,90 7,35 21,62 40,80 19,18 43,25 71,19 19,-4 32,-9 41,-18 8,-8 16,-20 19,-38l156 -32c-2,53 -20,99 -54,136 -35,38 -80,63 -135,75 -69,14 -130,4 -182,-31zm499 -689l46 221c20,-55 62,-90 126,-103 54,-11 101,-3 142,27 41,28 68,74 80,135l57 274 -143 29 -53 -254c-6,-30 -19,-52 -38,-65 -19,-14 -43,-17 -71,-11 -28,5 -48,19 -61,39 -12,19 -15,44 -9,75l53 253 -143 30 -130 -621 144 -29zm573 529l-130 -621 144 -30 130 621 -144 30zm469 -92c-68,14 -129,4 -182,-31 -53,-35 -86,-89 -102,-162 -15,-73 -5,-135 30,-187 34,-52 86,-85 154,-100 69,-14 131,-4 185,29 54,33 89,88 105,163 3,16 5,31 6,45l-322 68c7,20 19,35 38,45 18,10 37,13 55,9 18,-4 31,-9 39,-14 8,-6 14,-10 18,-15 3,-5 7,-12 12,-21l155 -33c-3,50 -22,93 -57,130 -34,38 -79,62 -134,74zm31 -302c-6,-21 -20,-37 -40,-47 -19,-11 -41,-13 -64,-8 -23,5 -40,16 -53,32 -13,18 -19,37 -19,59l176 -36zm345 -271l18 87c21,-69 59,-108 116,-120l30 146 -35 7c-33,7 -56,20 -70,39 -13,19 -16,48 -8,88l47 221 -144 30 -97 -469 143 -29zm417 319c4,22 1,43 -11,61 -13,18 -29,30 -51,34 -22,5 -43,2 -61,-11 -18,-12 -29,-28 -34,-50 -5,-23 -1,-43 11,-61 12,-18 29,-30 51,-34 22,-5 42,-1 60,11 19,12 30,28 35,50zm363 -148c16,-25 20,-55 13,-92 -8,-37 -24,-63 -49,-79 -24,-15 -50,-20 -77,-15 -27,6 -48,21 -65,45 -17,25 -21,56 -13,93 7,37 23,63 49,78 24,16 50,20 77,15 27,-6 48,-21 65,-45zm-240 141c-50,-36 -83,-89 -98,-159 -14,-70 -5,-131 26,-185 33,-54 79,-87 138,-100 60,-12 110,1 151,38l-13 -61 144 -30 97 468 -144 30 -13 -68c-25,57 -66,91 -124,103 -59,12 -113,0 -164,-36zm744 -218l52 -11 25 122 -73 16c-52,10 -96,7 -129,-10 -34,-17 -57,-54 -69,-110l-40 -196 -44 10 -24 -119 43 -9 -23 -115 143 -30 23 115 94 -20 26 119 -94 20 40 195c5,21 21,29 50,23z"/>
  </g>
  <g id="_475163824">
   <polygon class="fil7" points="19214,11706 46675,5991 49846,21228 22385,26943 "/>
   <polygon class="fil4" points="19214,11706 34181,8592 33714,24586 22385,26943 "/>
   <path class="fil8" d="M37609 9807l659 -137c131,-27 229,-42 295,-44 67,-3 129,7 187,31 57,25 109,61 155,112 45,49 76,110 90,181 17,77 10,153 -17,225 -29,73 -75,133 -139,180 106,8 193,42 262,102 68,59 112,136 132,232 16,75 14,152 -6,230 -20,78 -56,145 -108,200 -51,55 -121,97 -207,124 -54,18 -187,49 -399,95l-561 117 -343 -1648zm391 205l79 379 218 -45c129,-27 209,-46 240,-56 55,-18 96,-47 122,-86 26,-40 33,-86 22,-139 -10,-51 -33,-89 -68,-115 -35,-26 -81,-36 -138,-31 -33,3 -128,20 -284,53l-191 40zm136 653l91 443 309 -65c120,-25 195,-44 226,-57 48,-20 84,-50 108,-92 23,-42 29,-91 17,-150 -10,-50 -31,-89 -62,-118 -31,-30 -72,-48 -120,-54 -49,-6 -149,5 -301,37l-268 56z"/>
   <path class="fil8" d="M41203 10371l225 22c-8,126 -43,226 -107,299 -63,73 -153,122 -270,147 -144,30 -272,5 -386,-74 -113,-79 -187,-203 -223,-375 -38,-180 -20,-330 53,-449 72,-120 184,-195 336,-226 133,-28 249,-11 348,50 59,36 109,95 152,177l-205 97c-25,-54 -61,-93 -109,-116 -47,-25 -100,-30 -158,-19 -80,17 -139,60 -177,128 -39,68 -44,166 -18,296 29,136 74,229 135,276 62,49 132,64 211,48 58,-12 105,-41 139,-87 34,-46 52,-110 54,-194zm452 323l-226 -1083 220 -46 89 427 426 -89 -88 -427 220 -46 225 1084 -220 46 -99 -474 -426 89 99 474 -220 45zm1068 -222l-224 -1075 220 -46 186 892 543 -113 38 184 -763 158zm888 -184l-225 -1084 802 -168 38 184 -583 121 50 240 542 -112 39 183 -543 113 62 293 603 -125 39 183 -824 172zm979 -204l-225 -1084 460 -96c116,-24 202,-32 259,-23 57,8 106,34 148,77 42,44 69,96 83,160 16,83 7,154 -30,217 -37,63 -101,111 -193,145 53,18 98,40 136,67 38,26 91,76 160,150l176 184 -261 54 -206 -204c-74,-72 -123,-117 -149,-135 -25,-17 -50,-27 -75,-31 -25,-3 -63,1 -114,11l-44 9 94 453 -219 46zm89 -672l163 -33c104,-22 169,-40 193,-54 24,-15 41,-34 52,-59 10,-25 12,-54 5,-86 -8,-37 -24,-64 -47,-83 -25,-18 -55,-27 -92,-25 -18,1 -72,11 -160,30l-171 35 57 275z"/>
   <path class="fil9" d="M39648 10594l-55 -262 -219 46 53 253c25,122 51,212 79,271 18,40 46,76 86,108 38,31 87,54 145,67 58,12 139,8 242,-14 86,-17 153,-42 201,-76 49,-33 85,-71 109,-114 24,-44 36,-94 37,-150 0,-56 -12,-149 -40,-280l-51 -245 -219 46 57 275c18,85 27,148 29,186 1,38 -11,73 -37,105 -26,32 -70,54 -131,68 -61,12 -111,8 -152,-11 -40,-19 -70,-51 -88,-94 -12,-26 -27,-86 -46,-179z"/>
   <path class="fil10" d="M43905 10858l-14 -62 161 -33 30 146c-12,19 -32,37 -60,55 -26,17 -55,29 -86,35 -38,8 -73,7 -105,-3 -32,-10 -58,-29 -79,-56 -20,-27 -34,-58 -42,-94 -8,-38 -7,-73 3,-107 10,-33 28,-61 56,-83 21,-18 49,-30 84,-37 46,-9 83,-8 113,7 30,13 52,37 67,69l-71 29c-10,-17 -22,-29 -39,-37 -16,-7 -35,-8 -56,-4 -33,7 -56,22 -71,47 -15,24 -18,57 -10,97 9,44 26,75 49,93 25,18 52,23 84,17 15,-3 30,-10 44,-19 14,-10 26,-20 36,-31l-10 -46 -84 17zm382 -26l73 -3c-4,27 -14,50 -31,68 -17,17 -40,29 -69,35 -46,10 -84,2 -112,-24 -23,-21 -38,-49 -46,-86 -8,-45 -5,-82 14,-112 17,-30 44,-48 79,-55 40,-9 74,-2 102,20 28,21 48,59 58,113l-176 37c5,20 13,35 27,45 13,9 28,12 44,9 11,-2 20,-7 26,-15 6,-8 10,-18 11,-32zm-11 -73c-5,-20 -13,-35 -25,-43 -13,-9 -26,-11 -41,-8 -15,3 -26,11 -34,24 -7,14 -9,30 -5,49l105 -22zm109 62l68 -26c6,13 14,23 25,27 11,6 25,7 41,4 19,-4 31,-11 39,-19 6,-7 7,-13 6,-21 -2,-6 -4,-9 -8,-13 -5,-2 -13,-4 -26,-4 -60,0 -98,-4 -116,-12 -23,-10 -38,-28 -44,-53 -5,-24 1,-45 16,-64 15,-20 41,-34 80,-42 36,-7 64,-7 85,2 20,7 35,22 47,45l-64 26c-4,-10 -12,-17 -21,-21 -9,-4 -21,-5 -36,-1 -18,4 -31,9 -38,16 -5,5 -7,10 -5,16 1,5 4,9 9,11 8,4 31,6 71,6 39,1 68,6 85,15 17,10 29,26 33,49 5,24 0,47 -17,69 -17,21 -45,36 -85,45 -37,7 -67,6 -91,-4 -25,-10 -43,-28 -54,-51zm255 -253l65 -13 7 36c17,-33 43,-53 74,-59 18,-4 34,-4 47,0 14,5 27,14 38,27 9,-18 19,-31 31,-41 12,-9 26,-16 42,-20 18,-3 36,-3 52,2 15,6 27,15 37,29 7,11 13,28 19,54l35 170 -70 15 -32 -153c-5,-26 -11,-42 -18,-49 -8,-9 -20,-11 -33,-9 -10,2 -19,7 -26,15 -8,8 -12,18 -13,30 -2,13 0,32 5,57l27 127 -70 15 -31 -146c-6,-25 -10,-42 -14,-49 -4,-7 -9,-12 -15,-14 -6,-3 -14,-3 -23,-2 -11,2 -20,7 -27,15 -8,8 -12,17 -14,29 -1,12 0,31 6,56l27 130 -71 14 -55 -266zm504 173l-76 -367 70 -15 28 132c16,-29 39,-47 69,-53 32,-7 62,0 88,19 26,19 44,50 53,94 9,46 6,83 -11,113 -16,29 -40,46 -71,53 -16,3 -31,2 -47,-2 -17,-6 -32,-14 -46,-27l8 40 -65 13zm40 -152c6,27 15,47 27,58 15,17 34,22 54,18 16,-3 28,-12 36,-28 8,-16 9,-38 3,-67 -7,-30 -16,-51 -30,-63 -14,-11 -29,-15 -47,-11 -17,3 -30,13 -38,29 -8,15 -10,37 -5,64zm267 88l-77 -367 75 -16 30 144 145 -30 -30 -144 74 -16 77 368 -75 16 -33 -161 -145 30 34 161 -75 15z"/>
   <polygon class="fil11" points="39327,10153 40137,9753 39281,9931 "/>
   <path class="fil8" d="M39389 20319l158 -32 -50 577 -180 38 -142 -306 -11 338 -179 37 -276 -510 167 -35 164 365 4 -400 177 -37 163 365 5 -400zm845 -176l157 -32 -50 578 -179 37 -143 -306 -10 338 -180 37 -275 -510 166 -35 165 365 4 -400 177 -36 162 364 6 -400zm844 -175l158 -33 -50 578 -180 38 -143 -307 -10 338 -179 37 -277 -510 168 -35 164 365 4 -399 176 -38 164 365 5 -399zm471 374c6,26 1,49 -13,70 -14,22 -33,35 -60,41 -25,4 -49,0 -70,-14 -20,-13 -34,-33 -39,-59 -6,-25 -1,-49 12,-70 14,-22 34,-34 60,-40 26,-5 49,-1 70,13 21,14 35,34 40,59zm459 -180c19,-28 25,-63 15,-106 -9,-43 -28,-74 -56,-92 -29,-18 -59,-25 -91,-18 -31,7 -56,24 -75,52 -20,28 -24,64 -16,106 9,43 28,74 57,92 29,19 59,24 90,18 32,-6 56,-24 76,-52zm-265 -258c27,-60 75,-97 144,-111 69,-14 133,0 192,42 59,43 97,104 114,186 17,81 7,152 -30,214 -38,62 -90,101 -159,115 -68,14 -128,-3 -178,-53l16 79 -166 35 -151 -721 167 -35 51 249zm869 -256l167 -34 113 544 -167 35 -16 -81c-23,65 -72,105 -147,120 -63,14 -118,3 -164,-31 -48,-33 -79,-86 -94,-157l-66 -317 166 -35 61 295c8,35 22,60 45,76 22,15 49,19 82,13 33,-7 56,-22 71,-45 14,-23 18,-52 10,-87l-61 -296zm659 438c-80,17 -150,5 -211,-36 -61,-41 -101,-103 -118,-187 -18,-85 -7,-158 33,-218 40,-61 100,-99 180,-116 80,-16 152,-5 214,33 63,38 104,101 122,189 4,19 6,37 7,54l-375 77c9,24 24,41 46,53 21,11 42,15 63,11 21,-4 36,-10 46,-16 10,-7 16,-13 20,-18 4,-5 9,-14 15,-25l180 -37c-4,58 -26,108 -66,151 -40,43 -92,72 -156,85zm36 -351c-8,-24 -23,-42 -46,-54 -23,-12 -47,-15 -74,-10 -27,6 -48,19 -63,38 -15,20 -22,43 -21,69l204 -43zm369 188c-61,-41 -101,-103 -118,-188 -17,-84 -6,-157 33,-218 40,-60 100,-99 180,-116 67,-14 126,-9 179,14 53,23 94,64 121,122l-180 37c-23,-29 -52,-39 -87,-32 -35,7 -59,25 -71,54 -12,28 -14,63 -5,104 8,41 23,73 46,94 23,21 50,28 83,21 21,-4 37,-11 47,-20 10,-10 18,-25 24,-45l180 -38c-3,62 -24,115 -64,159 -40,44 -92,73 -157,87 -80,17 -151,5 -211,-35zm580 -802l54 257c22,-64 71,-104 147,-120 62,-12 117,-2 164,31 48,34 78,86 93,158l67 318 -166 34 -62 -295c-7,-36 -22,-61 -44,-76 -23,-15 -50,-20 -83,-13 -32,7 -56,22 -70,45 -14,23 -18,52 -11,87l61 296 -166 35 -150 -722 166 -35zm666 614l-150 -722 167 -34 150 722 -167 34zm546 -106c-80,16 -150,4 -211,-36 -61,-41 -101,-103 -118,-188 -19,-84 -7,-156 33,-217 40,-61 100,-100 180,-116 80,-17 152,-6 214,33 63,38 104,101 122,189 4,19 6,37 7,54l-375 78c9,23 24,40 45,52 22,11 43,15 64,10 21,-4 36,-9 46,-16 10,-6 16,-12 20,-17 4,-6 9,-13 15,-25l180 -37c-4,57 -26,108 -66,151 -40,43 -92,71 -156,85zm36 -350c-8,-25 -23,-44 -46,-56 -23,-11 -48,-15 -74,-9 -27,6 -48,18 -63,38 -15,20 -22,43 -21,69l204 -42zm401 -316l21 102c24,-80 69,-127 134,-140l35 170 -41 8c-38,8 -65,23 -80,45 -16,23 -19,57 -9,102l53 257 -167 35 -113 -544 167 -35zm484 372c6,25 1,49 -12,70 -15,22 -34,35 -60,40 -26,5 -49,1 -70,-13 -21,-13 -35,-34 -40,-59 -5,-26 -1,-49 13,-71 14,-21 33,-34 59,-39 26,-6 49,-2 71,13 21,13 34,33 39,59zm422 -173c19,-29 24,-64 16,-107 -10,-42 -29,-73 -57,-91 -29,-19 -59,-24 -90,-18 -32,7 -57,24 -76,52 -19,29 -24,64 -15,108 9,42 28,73 56,91 29,18 59,24 90,18 32,-7 57,-25 76,-53zm-278 163c-59,-41 -97,-103 -114,-184 -17,-81 -7,-153 30,-215 38,-63 91,-101 161,-116 68,-14 127,0 175,45l-15 -72 167 -34 113 543 -167 35 -17 -79c-28,66 -76,106 -143,120 -68,13 -132,0 -190,-43zm865 -252l59 -13 29 141 -84 19c-61,12 -112,8 -150,-12 -40,-20 -66,-63 -80,-128l-47 -226 -50 10 -29 -138 50 -11 -27 -132 167 -35 27 132 110 -22 28 138 -109 23 47 226c5,25 25,35 59,28z"/>
   <path class="fil6" d="M23651 22604c18,-27 21,-60 14,-98 -8,-39 -25,-67 -51,-83 -25,-18 -53,-23 -83,-17 -30,7 -53,22 -69,48 -15,26 -19,58 -11,97 7,38 24,67 48,84 25,18 52,23 82,17 29,-6 53,-22 70,-48zm-57 110c-53,11 -99,3 -140,-23 -41,-28 -67,-69 -79,-124 -11,-56 -3,-104 24,-146 29,-41 68,-67 120,-78 52,-10 100,-2 142,24 42,27 68,68 80,123 11,55 3,103 -26,145 -28,42 -69,69 -121,79zm334 -450l12 61 -66 14 62 298 -75 16 -62 -299 -42 10 -13 -61 42 -9 -4 -25c-9,-42 -4,-75 13,-97 18,-24 50,-41 98,-50l13 61c-23,5 -38,12 -45,23 -8,11 -9,26 -5,47l5 25 67 -14zm144 -56l6 25 206 -42 75 358 -74 16 -63 -299 -132 28 62 298 -74 16 -63 -299 -42 10 -13 -61 43 -9 -6 -25c-9,-42 -4,-75 14,-97 19,-24 51,-41 98,-50l13 61c-23,5 -38,12 -45,23 -7,11 -9,26 -5,47zm202 -115c4,14 1,26 -6,37 -7,11 -17,18 -31,20 -13,3 -25,1 -36,-6 -11,-7 -18,-18 -21,-32 -3,-13 0,-25 7,-36 7,-11 17,-18 31,-21 13,-3 25,0 36,7 11,7 18,17 20,31zm335 410c-53,11 -98,3 -138,-24 -39,-27 -65,-69 -76,-124 -12,-56 -5,-104 21,-145 25,-41 64,-67 116,-77 43,-10 81,-6 114,8 33,15 58,40 76,76l-80 17c-22,-35 -54,-48 -97,-39 -30,7 -53,22 -66,48 -13,25 -17,57 -9,95 8,39 24,67 46,86 23,17 49,23 80,17 43,-10 67,-34 73,-75l80 -17c-2,39 -16,72 -40,100 -25,28 -58,46 -100,54zm391 -81c-53,11 -98,2 -138,-24 -39,-27 -65,-69 -76,-125 -12,-56 -5,-105 21,-145 26,-40 65,-66 118,-77 52,-11 98,-3 137,22 39,25 64,65 75,117 2,12 4,24 5,35l-275 57c8,30 23,52 45,66 22,13 47,17 75,12 40,-9 65,-32 74,-68l81 -17c-4,35 -18,66 -43,93 -24,27 -58,45 -99,54zm56 -232c-7,-29 -21,-51 -44,-64 -23,-14 -48,-18 -75,-13 -27,6 -49,20 -63,41 -15,22 -21,48 -17,78l199 -42zm147 38c-15,-71 -11,-139 13,-204 23,-66 62,-121 117,-166 55,-45 120,-76 196,-91 92,-20 172,-9 239,30 68,40 110,102 128,188 14,67 7,127 -21,182 -28,54 -66,87 -113,96 -28,6 -50,3 -66,-9 -17,-12 -28,-29 -34,-53 -21,60 -60,95 -115,107 -45,9 -85,-1 -120,-31 -36,-30 -55,-72 -58,-128 -4,-55 11,-104 42,-146 33,-42 74,-68 123,-79 50,-10 93,-1 127,26 35,26 53,66 56,118l6 100c2,24 12,34 32,30 23,-4 42,-26 57,-64 15,-39 18,-83 8,-134 -15,-66 -47,-116 -98,-148 -53,-31 -116,-39 -191,-23 -91,19 -161,65 -208,139 -48,74 -62,155 -43,245 16,76 52,131 108,164 57,32 127,41 211,25l-2 63c-99,19 -185,8 -257,-34 -72,-41 -117,-109 -137,-203zm275 -8c22,20 46,26 74,20 27,-5 50,-22 69,-50 18,-28 26,-59 24,-96 -2,-36 -13,-64 -36,-83 -21,-20 -45,-26 -72,-20 -28,5 -51,22 -69,49 -19,28 -27,60 -24,97 1,36 13,64 34,83zm789 -164c16,-27 21,-59 14,-95 -8,-37 -25,-64 -51,-82 -26,-16 -53,-22 -83,-15 -30,6 -53,22 -71,48 -16,27 -21,58 -13,95 7,37 24,64 50,82 27,17 54,23 83,16 30,-5 53,-22 71,-49zm-118 -260c48,-10 92,-1 131,26 40,27 65,68 76,123 12,54 5,103 -21,144 -25,42 -61,68 -109,78 -28,5 -54,4 -78,-5 -24,-9 -45,-23 -62,-43l14 68 -74 15 -101 -481 75 -16 38 187c8,-24 22,-44 41,-62 19,-16 42,-28 70,-34zm495 -97l74 -16 75 360 -74 15 -12 -56c-15,46 -49,74 -102,85 -40,9 -77,2 -108,-19 -33,-21 -53,-56 -64,-104l-44 -212 74 -15 41 201c8,31 21,54 40,68 20,14 43,18 72,12 28,-5 47,-19 60,-39 13,-21 16,-47 9,-79l-41 -201zm398 298c-52,10 -98,2 -137,-24 -40,-27 -66,-69 -77,-125 -11,-56 -4,-105 22,-145 26,-41 64,-66 117,-77 53,-11 98,-3 138,22 39,25 64,64 75,116 2,13 4,24 5,36l-275 57c8,30 23,52 45,65 22,14 46,18 75,12 40,-8 65,-31 74,-67l81 -18c-4,36 -19,67 -43,94 -25,27 -58,45 -100,54zm57 -232c-7,-29 -21,-51 -44,-65 -23,-13 -48,-17 -75,-12 -28,6 -49,20 -63,41 -15,22 -21,48 -18,78l200 -42zm346 148c-53,11 -98,3 -138,-24 -39,-27 -65,-69 -77,-124 -11,-56 -4,-105 21,-146 26,-40 65,-66 116,-76 44,-10 81,-7 115,8 32,15 57,40 75,76l-79 17c-22,-35 -54,-48 -97,-39 -31,7 -53,22 -67,48 -13,25 -16,56 -8,95 8,39 23,67 46,85 22,18 49,24 79,18 44,-10 68,-34 74,-75l80 -17c-3,39 -16,72 -40,100 -25,27 -58,46 -100,54zm212 -553l37 180c15,-47 49,-76 102,-86 40,-9 77,-3 108,18 32,23 53,57 63,106l44 211 -74 15 -41 -200c-7,-33 -20,-56 -40,-69 -19,-14 -43,-18 -71,-12 -28,6 -47,19 -61,40 -12,20 -15,46 -9,79l42 200 -74 15 -100 -482 74 -15zm449 410l-101 -482 75 -16 100 482 -74 16zm324 -62c-52,11 -98,3 -138,-25 -39,-26 -65,-68 -76,-124 -12,-56 -5,-105 21,-145 26,-40 65,-66 118,-77 52,-11 97,-4 137,22 39,26 64,65 75,117 3,12 5,24 5,35l-275 58c8,29 23,50 45,65 22,13 47,17 75,11 40,-8 66,-30 75,-67l80 -17c-4,35 -18,66 -42,93 -25,27 -58,45 -100,54zm56 -232c-6,-30 -21,-51 -44,-64 -23,-14 -47,-18 -75,-12 -27,5 -48,19 -63,40 -15,21 -21,47 -17,78l199 -42zm193 -200l13 62c14,-50 45,-80 93,-91l17 77 -19 4c-30,6 -50,18 -62,36 -12,18 -14,45 -6,82l39 188 -74 16 -75 -359 74 -15zm308 297c-8,10 -17,16 -30,19 -12,3 -24,1 -34,-7 -11,-6 -17,-16 -19,-28 -3,-13 -1,-24 6,-35 6,-10 16,-16 28,-19 13,-3 25,-1 35,7 10,6 17,16 20,29 2,12 1,24 -6,34zm314 -148c16,-26 21,-58 13,-95 -8,-37 -24,-64 -50,-81 -26,-17 -54,-23 -83,-17 -30,7 -53,22 -70,49 -17,25 -22,56 -15,94 8,36 26,64 52,82 26,17 53,23 83,17 30,-6 53,-22 70,-49zm-72 117c-48,9 -92,1 -132,-28 -39,-28 -65,-69 -77,-124 -11,-54 -4,-102 21,-143 25,-41 62,-66 111,-76 28,-6 54,-4 78,4 24,8 44,22 61,40l-14 -64 75 -16 75 360 -75 15 -14 -67c-8,25 -21,46 -39,63 -19,18 -42,30 -70,36zm408 -402l-88 18 41 198c3,14 9,22 16,27 8,5 19,6 34,3l46 -10 12 62 -58 12c-69,15 -111,-11 -124,-78l-42 -199 -42 9 -13 -60 42 -9 -18 -89 75 -16 18 89 88 -18 13 61z"/>
   <path class="fil6" d="M23511 21344l14 66 -131 28 27 132 -70 15 -28 -133 -131 28 -14 -67 131 -27 -28 -133 71 -14 27 132 132 -27zm357 35l-48 -230 -106 262 154 -32zm30 164l-20 -99 -236 49 -11 -56 153 -359 90 -19 64 305 60 -12 13 64 -60 13 21 99 -74 15zm120 -398c-6,-41 3,-75 27,-104 23,-28 58,-47 103,-57 44,-9 82,-4 113,13 31,18 50,45 58,81 5,27 3,52 -7,74 -11,22 -26,38 -44,49l0 2c28,2 51,13 69,30 19,18 31,44 39,80 7,36 0,69 -21,99 -21,30 -56,50 -103,60 -48,11 -90,6 -124,-11 -36,-19 -60,-49 -71,-94l71 -15c7,23 20,39 39,51 19,11 42,13 70,8 26,-6 45,-17 56,-35 11,-17 15,-38 10,-61 -6,-30 -20,-49 -42,-58 -22,-9 -53,-10 -93,-1l-17 3 -12 -61 17 -4c72,-15 103,-46 93,-93 -5,-20 -14,-36 -31,-46 -15,-9 -36,-11 -60,-6 -25,5 -42,15 -53,30 -11,15 -16,32 -15,51l-72 15zm899 312c-60,-28 -113,-73 -158,-134 -46,-61 -78,-133 -94,-213 -17,-81 -16,-158 1,-232 18,-75 48,-137 93,-186l76 -16 2 7c-50,60 -82,125 -99,196 -16,71 -16,143 -1,216 15,73 45,139 87,197 44,59 100,106 169,142l2 7 -78 16zm102 -154l-11 -54c9,-12 22,-29 39,-51 17,-22 30,-39 39,-51 9,-13 20,-28 34,-47 13,-19 23,-34 30,-47 7,-13 13,-28 20,-43 13,-30 16,-57 11,-82 -12,-54 -42,-75 -94,-65 -25,6 -43,18 -54,38 -11,19 -14,42 -9,70l-72 14c-8,-50 -2,-90 22,-122 22,-33 56,-53 102,-63 45,-9 85,-5 116,16 33,20 53,51 62,93 6,32 4,63 -7,96 -6,16 -12,31 -18,45 -6,13 -15,28 -26,46 -11,18 -21,32 -28,42 -7,11 -17,24 -31,43 -13,18 -23,31 -27,37l206 -43 12 62 -316 66zm376 -78l-11 -54c8,-12 22,-29 39,-51 17,-22 30,-39 39,-51 9,-13 20,-28 34,-47 12,-19 23,-35 30,-47 6,-14 13,-28 19,-44 13,-29 17,-56 12,-81 -12,-54 -42,-75 -94,-65 -26,6 -44,18 -54,37 -11,19 -14,43 -9,71l-72 14c-9,-50 -2,-91 21,-123 23,-32 57,-52 103,-62 45,-9 84,-5 116,16 33,20 53,50 61,93 7,32 5,63 -6,96 -6,16 -12,31 -17,45 -7,13 -15,28 -27,46 -12,18 -21,32 -28,42 -7,10 -17,24 -31,43 -14,18 -23,31 -28,37l207 -43 12 62 -316 66zm271 -543l315 -66 11 55 -94 456 -82 17 105 -450 -241 49 -14 -61zm401 37c-6,-41 3,-76 27,-104 23,-29 58,-48 103,-57 45,-10 83,-5 113,12 31,19 50,45 58,82 5,27 3,51 -7,73 -11,22 -26,38 -44,49l1 3c27,2 50,12 69,30 18,18 31,44 38,80 8,36 0,68 -21,99 -21,30 -56,50 -103,60 -48,10 -90,6 -124,-12 -36,-18 -59,-49 -71,-94l72 -15c7,23 19,40 38,51 20,11 43,14 70,8 27,-5 45,-16 57,-34 11,-18 15,-38 10,-61 -7,-30 -21,-50 -43,-59 -22,-8 -53,-8 -93,-1l-17 4 -12 -61 17 -4c72,-16 103,-47 93,-93 -4,-21 -14,-37 -30,-46 -16,-10 -36,-12 -61,-7 -25,5 -42,16 -53,31 -11,15 -16,32 -14,51l-73 15zm384 -379c61,27 114,72 159,132 46,62 78,133 94,214 17,80 17,158 0,232 -19,75 -49,137 -94,186l-77 16 -1 -7c50,-60 83,-126 99,-197 16,-71 16,-143 1,-215 -15,-73 -44,-139 -87,-198 -43,-58 -100,-105 -169,-140l-2 -8 77 -15zm618 537l-12 -55c10,-12 23,-28 40,-50 17,-22 30,-40 39,-52 9,-12 20,-27 34,-46 13,-19 23,-35 30,-48 7,-13 13,-27 20,-43 13,-29 16,-56 11,-81 -12,-54 -42,-75 -94,-65 -25,5 -43,17 -54,37 -11,19 -14,43 -9,69l-72 16c-9,-50 -1,-91 21,-123 23,-32 57,-53 103,-62 46,-11 85,-5 116,15 33,20 53,51 62,94 6,31 4,63 -7,95 -6,17 -12,32 -18,45 -6,13 -15,29 -26,47 -11,17 -21,31 -28,42 -7,9 -17,23 -31,42 -13,19 -23,30 -28,38l207 -43 12 61 -316 67zm434 -84l-82 -395 -61 13 -14 -68 136 -28 96 462 -75 16zm152 -245l-13 -63 268 -55 13 62 -268 56zm295 -341l314 -66 12 56 -95 455 -82 17 105 -451 -241 51 -13 -62zm364 -77l315 -64 11 55 -94 455 -82 17 105 -451 -241 51 -14 -63zm452 187l-13 -63 267 -56 14 63 -268 56zm398 -346c20,-17 46,-29 78,-36 33,-6 61,-6 87,1 24,8 45,21 62,40 17,20 32,43 43,69 11,26 19,57 27,92 7,35 11,67 11,95 0,28 -4,55 -11,80 -8,25 -22,46 -42,62 -20,17 -46,28 -78,35 -32,7 -61,7 -86,-1 -25,-7 -46,-20 -63,-41 -17,-19 -31,-42 -42,-68 -11,-26 -21,-56 -28,-92 -7,-35 -11,-66 -11,-95 0,-28 3,-54 11,-80 8,-24 22,-45 42,-61zm93 32c-22,5 -37,13 -49,25 -12,11 -18,27 -22,45 -4,32 0,72 9,119 10,48 24,85 40,114 19,32 50,44 92,35 42,-8 65,-31 69,-69 4,-33 2,-72 -8,-120 -10,-48 -23,-85 -40,-112 -19,-34 -49,-46 -91,-37z"/>
   <path class="fil6" d="M22757 19532c-6,-41 3,-75 27,-104 23,-29 58,-47 103,-57 45,-9 82,-5 113,13 31,17 50,45 58,80 5,27 3,52 -7,74 -11,22 -25,39 -44,49l0 3c28,2 51,13 69,30 19,17 32,44 40,80 7,35 0,69 -22,99 -21,30 -56,50 -103,60 -48,10 -89,6 -124,-11 -36,-19 -60,-50 -71,-94l72 -15c7,22 19,39 38,50 19,11 42,14 70,9 27,-6 46,-18 57,-35 11,-17 15,-38 9,-61 -6,-31 -20,-50 -42,-58 -22,-10 -53,-10 -93,-1l-17 3 -12 -61 17 -4c72,-15 103,-47 93,-93 -4,-21 -14,-36 -30,-46 -16,-9 -37,-12 -61,-7 -25,6 -42,16 -53,31 -11,15 -16,32 -14,51l-73 15zm659 65l-48 -230 -106 263 154 -33zm31 164l-21 -98 -236 49 -12 -56 154 -360 89 -19 64 306 61 -13 14 65 -61 13 20 98 -72 15zm118 -398c-5,-40 3,-75 27,-103 24,-29 58,-48 103,-57 45,-10 83,-6 113,13 31,17 50,45 58,80 6,27 3,52 -7,74 -10,22 -25,38 -44,49l1 3c27,2 50,12 69,30 18,17 32,44 39,80 8,35 0,68 -22,98 -21,31 -56,51 -103,61 -48,10 -89,6 -124,-12 -36,-18 -59,-49 -70,-94l71 -15c7,23 19,40 38,51 20,11 43,14 70,9 27,-6 46,-18 57,-35 12,-18 15,-38 10,-61 -6,-30 -21,-50 -43,-59 -22,-9 -53,-9 -93,0l-16 3 -13 -61 17 -4c72,-16 104,-47 94,-93 -4,-21 -15,-36 -30,-46 -17,-9 -37,-12 -61,-7 -25,5 -43,16 -54,31 -10,15 -16,32 -14,50l-73 15zm387 -80c-5,-41 3,-75 27,-104 24,-28 58,-47 103,-57 46,-9 83,-5 113,13 31,18 50,45 58,81 6,26 3,51 -7,73 -10,22 -25,39 -43,50l0 2c27,3 50,13 69,30 18,18 32,44 39,80 7,36 0,69 -22,99 -21,31 -56,50 -103,61 -47,9 -89,5 -124,-12 -36,-18 -59,-49 -70,-94l72 -15c6,23 18,39 37,50 19,12 43,14 70,9 27,-6 46,-17 57,-35 12,-17 15,-38 10,-61 -6,-30 -20,-49 -43,-58 -22,-9 -52,-10 -93,-1l-16 3 -13 -61 17 -4c72,-15 103,-46 94,-93 -4,-21 -15,-36 -31,-46 -16,-9 -37,-11 -61,-7 -25,6 -42,16 -53,31 -11,15 -16,33 -14,51l-73 15zm743 219l-75 15 -94 -452 74 -16 43 207 133 -243 97 -21 -157 270 251 183 -98 20 -217 -166 43 203zm552 -208c17,-26 22,-59 14,-97 -9,-39 -25,-68 -50,-84 -26,-17 -54,-23 -83,-17 -30,7 -53,22 -70,48 -16,26 -20,58 -12,97 9,39 25,67 49,84 25,18 52,23 82,17 30,-6 53,-22 70,-48zm-57 111c-53,10 -100,3 -141,-24 -40,-27 -67,-69 -78,-124 -12,-56 -3,-104 25,-145 27,-42 68,-68 120,-78 52,-11 98,-3 141,24 42,26 69,68 80,123 12,54 3,103 -26,145 -29,41 -69,68 -121,79zm258 -434l11 57c15,-48 49,-76 102,-87 41,-8 77,-2 108,19 32,22 53,57 64,105l43 211 -73 16 -42 -200c-7,-33 -20,-56 -40,-70 -19,-13 -43,-17 -71,-12 -27,6 -48,19 -61,40 -12,20 -15,46 -8,79l42 200 -75 16 -75 -359 75 -15zm413 -186c3,13 0,26 -7,37 -7,11 -17,18 -30,21 -14,2 -26,1 -37,-7 -11,-7 -18,-18 -20,-31 -4,-14 -1,-25 6,-37 7,-11 17,-18 31,-20 13,-3 25,-1 36,6 11,7 18,18 21,31zm10 472l-75 -359 74 -16 75 360 -74 15zm317 -60c-47,10 -91,0 -131,-27 -40,-29 -65,-70 -76,-124 -12,-55 -5,-103 20,-143 26,-41 63,-67 111,-77 28,-5 54,-5 78,4 25,8 44,21 60,40l-13 -64 75 -15 76 365c11,50 4,94 -21,132 -24,39 -62,63 -114,75 -52,10 -96,7 -133,-9 -37,-16 -61,-43 -74,-82l74 -15c9,18 24,30 46,38 20,8 45,9 72,3 28,-6 49,-20 64,-42 14,-21 18,-50 11,-85l-15 -73c-8,24 -21,46 -39,64 -18,17 -42,29 -71,35zm72 -116c18,-27 22,-59 15,-95 -8,-37 -25,-64 -51,-82 -26,-17 -54,-23 -84,-16 -29,5 -53,22 -69,47 -18,26 -22,57 -14,94 7,37 24,65 50,82 26,18 55,24 84,18 29,-6 53,-22 69,-48zm155 -204c-6,-31 1,-60 22,-86 22,-26 53,-44 94,-53 42,-8 78,-4 106,11 29,16 48,41 57,76l-76 16c-5,-17 -14,-30 -27,-38 -13,-8 -30,-9 -49,-5 -21,4 -35,12 -45,23 -9,11 -12,24 -9,39 2,14 12,25 28,29 16,6 35,8 56,7 22,0 43,1 65,2 22,2 42,9 59,21 18,11 29,30 34,55 7,31 -1,60 -23,84 -22,26 -54,42 -96,51 -41,9 -77,5 -107,-10 -29,-14 -49,-39 -60,-75l78 -17c5,18 14,30 28,38 14,8 30,9 51,5 20,-4 35,-12 45,-23 10,-12 14,-25 11,-40 -3,-15 -13,-24 -29,-30 -16,-5 -35,-8 -56,-8 -22,1 -43,0 -65,-1 -21,-1 -41,-7 -59,-18 -17,-12 -28,-30 -33,-53zm529 -154l-87 18 41 198c3,14 9,22 16,27 8,5 19,5 34,2l45 -9 13 61 -58 13c-69,14 -111,-12 -124,-78l-42 -199 -42 9 -13 -61 42 -8 -18 -89 75 -16 18 89 88 -18 12 61zm283 258c-52,11 -98,2 -138,-25 -39,-26 -65,-68 -77,-124 -11,-56 -4,-105 22,-145 26,-41 65,-66 117,-77 53,-11 98,-3 138,22 39,25 65,65 75,117 3,12 5,24 5,35l-275 57c8,30 23,51 45,65 22,14 47,18 75,13 40,-9 65,-32 75,-68l80 -17c-4,35 -18,66 -42,93 -25,27 -58,45 -100,54zm56 -232c-6,-30 -21,-51 -44,-65 -23,-13 -47,-17 -75,-12 -28,6 -48,20 -63,41 -15,22 -21,48 -17,78l199 -42zm305 -161l-87 19 41 198c4,13 8,23 16,27 7,4 18,5 34,2l45 -9 14 61 -59 13c-69,14 -110,-12 -125,-78l-41 -199 -42 9 -13 -61 43 -8 -19 -90 75 -16 19 90 87 -18 12 60zm243 -50l-88 18 42 198c2,14 8,23 15,28 8,4 19,5 34,1l46 -9 13 62 -59 12c-69,14 -111,-12 -124,-78l-41 -198 -43 8 -12 -60 42 -9 -19 -89 75 -16 18 89 88 -18 13 61zm283 258c-53,11 -98,3 -138,-24 -39,-27 -65,-69 -77,-124 -11,-56 -4,-105 22,-146 26,-40 65,-66 117,-76 53,-11 99,-4 137,21 40,26 65,65 76,117 2,13 4,24 5,35l-275 58c8,29 23,51 45,65 22,13 47,17 74,12 41,-9 66,-31 75,-68l81 -17c-4,36 -18,67 -43,93 -24,27 -58,45 -99,54zm56 -231c-7,-30 -22,-52 -44,-65 -23,-14 -48,-17 -76,-12 -26,6 -48,19 -63,40 -14,22 -20,48 -16,78l199 -41zm192 -201l12 57c15,-48 49,-76 102,-87 40,-9 77,-2 108,20 32,21 53,56 64,104l43 212 -73 16 -42 -201c-7,-33 -20,-55 -40,-70 -19,-13 -42,-17 -71,-11 -28,5 -47,18 -61,39 -12,21 -15,47 -8,79l41 201 -74 15 -75 -359 74 -15z"/>
   <path class="fil6" d="M25086 18945c2,14 0,26 -7,37 -7,11 -18,18 -31,20 -13,3 -25,1 -37,-6 -11,-7 -17,-17 -20,-31 -3,-14 -1,-26 6,-37 7,-11 18,-18 31,-20 13,-4 25,-1 36,6 11,7 19,18 22,31z"/>
   <path class="fil6" d="M25234 18914c3,14 0,26 -7,37 -7,11 -17,18 -31,20 -12,4 -25,1 -36,-6 -11,-8 -17,-18 -21,-31 -2,-14 0,-26 8,-37 7,-11 17,-18 30,-20 13,-3 26,-1 36,6 11,7 18,17 21,31z"/>
   <path class="fil6" d="M23062 18384l79 -16 -40 480 -83 18 -167 -323 -30 364 -83 18 -223 -427 79 -16 171 349 24 -390 84 -18 171 348 18 -387zm225 -48c2,13 1,26 -7,37 -7,11 -17,18 -30,20 -14,3 -26,1 -36,-6 -12,-8 -19,-18 -22,-32 -2,-13 0,-25 7,-36 7,-11 18,-18 31,-21 13,-3 25,0 36,7 12,7 18,17 21,31zm9 471l-74 -358 74 -15 75 358 -75 15zm414 -182c16,-26 21,-58 14,-95 -8,-37 -25,-64 -51,-81 -26,-16 -53,-22 -83,-15 -30,6 -53,22 -71,48 -16,26 -21,57 -13,95 7,37 24,64 50,81 26,17 54,23 83,17 30,-6 53,-23 71,-50zm-118 -259c48,-11 92,-2 131,26 40,27 65,68 76,122 12,55 5,103 -21,145 -25,42 -61,67 -109,77 -28,6 -54,5 -78,-5 -24,-8 -45,-23 -62,-42l49 238 -74 15 -110 -529 74 -16 13 64c8,-24 22,-43 41,-61 19,-17 41,-29 70,-34zm322 -88l6 25 206 -42 75 358 -74 16 -63 -299 -132 28 62 299 -74 15 -63 -298 -42 9 -13 -61 43 -9 -6 -25c-9,-41 -4,-74 14,-97 19,-24 51,-41 98,-50l13 61c-23,5 -38,13 -45,23 -7,11 -9,26 -5,47zm202 -115c4,14 1,26 -6,37 -7,11 -17,18 -31,20 -13,3 -25,1 -36,-6 -11,-7 -18,-17 -21,-31 -3,-13 0,-26 7,-37 7,-11 17,-18 31,-21 13,-2 25,0 36,7 11,8 18,18 20,31zm182 62l12 56c15,-47 49,-75 102,-86 40,-9 76,-2 108,20 32,21 53,56 63,104l44 212 -74 15 -42 -201c-6,-32 -19,-54 -39,-69 -20,-13 -44,-17 -71,-12 -28,6 -48,19 -61,40 -13,21 -16,47 -9,79l42 201 -74 15 -75 -359 74 -15zm569 261c-47,11 -92,1 -131,-26 -40,-29 -66,-70 -77,-124 -12,-55 -5,-103 21,-143 25,-41 62,-67 110,-77 28,-6 55,-5 78,4 25,8 45,21 61,40l-13 -64 75 -16 76 365c10,51 3,95 -22,133 -24,39 -62,63 -113,74 -52,11 -97,8 -133,-8 -37,-16 -62,-43 -74,-81l73 -16c10,18 25,30 46,38 21,8 45,9 73,3 27,-6 49,-19 64,-42 14,-22 18,-50 11,-85l-15 -73c-8,25 -21,46 -40,64 -18,17 -42,29 -70,34zm72 -116c17,-27 22,-58 14,-94 -8,-38 -24,-64 -51,-82 -26,-17 -53,-23 -83,-16 -30,6 -52,22 -70,47 -17,26 -22,58 -14,94 8,37 24,65 51,82 26,18 54,24 83,18 30,-6 53,-23 70,-49zm377 23c-53,11 -98,3 -139,-23 -39,-28 -64,-69 -76,-125 -12,-56 -5,-105 21,-146 26,-40 66,-65 118,-76 52,-11 98,-4 137,22 40,25 65,64 75,116 3,13 5,24 5,36l-275 57c8,29 23,52 45,65 22,14 48,18 75,12 40,-8 66,-31 75,-68l80 -17c-4,36 -18,67 -42,94 -24,27 -58,45 -99,53zm56 -231c-7,-29 -22,-52 -45,-65 -22,-13 -47,-17 -75,-12 -27,6 -48,19 -63,40 -15,23 -20,48 -16,78l199 -41zm192 -201l14 63c13,-51 44,-81 93,-91l16 77 -19 3c-29,7 -50,18 -62,37 -12,18 -14,45 -6,81l39 189 -74 16 -75 -359 74 -16zm504 -145c-22,4 -38,13 -50,27 -12,15 -15,33 -11,54 5,21 16,36 35,44 19,8 41,12 65,12 25,1 49,2 74,3 25,3 48,11 68,26 20,15 34,38 41,72 7,34 -1,67 -23,99 -23,32 -59,53 -106,63 -47,10 -88,7 -122,-9 -34,-16 -55,-44 -63,-82l79 -17c6,19 17,34 32,43 15,8 36,11 61,5 25,-5 44,-16 56,-31 11,-17 15,-34 12,-52 -4,-17 -11,-30 -22,-38 -11,-8 -24,-14 -39,-15 -15,-3 -32,-4 -49,-4 -19,0 -37,-2 -55,-4 -18,-1 -35,-4 -51,-10 -15,-5 -30,-15 -42,-29 -12,-13 -21,-32 -25,-55 -8,-40 -1,-75 22,-105 24,-30 58,-49 104,-59 45,-9 84,-6 115,9 31,15 52,43 64,81l-82 17c-5,-17 -16,-30 -31,-39 -16,-9 -34,-11 -57,-6zm448 10l-87 18 41 199c3,14 8,22 16,27 7,5 18,6 33,3l46 -10 13 62 -59 12c-69,15 -110,-12 -124,-78l-41 -199 -43 9 -13 -60 43 -10 -19 -89 75 -15 19 89 87 -18 13 60zm130 -90l13 62c13,-50 45,-80 93,-90l16 77 -19 4c-29,5 -49,17 -61,35 -12,19 -14,46 -7,82l39 189 -74 15 -74 -358 74 -16zm468 182c17,-27 22,-59 14,-95 -7,-37 -25,-64 -51,-81 -26,-18 -54,-23 -83,-17 -30,5 -53,22 -70,47 -17,26 -21,58 -13,94 7,37 24,65 50,83 26,18 54,23 84,18 29,-7 52,-23 69,-49zm-72 116c-48,10 -91,1 -131,-27 -40,-28 -66,-70 -77,-124 -11,-55 -4,-103 21,-143 25,-41 62,-66 110,-77 28,-5 55,-4 79,4 24,8 44,22 60,41l-13 -64 75 -16 75 358 -75 16 -15 -67c-7,25 -20,46 -39,64 -18,17 -42,29 -70,35zm202 -520l172 -36c47,-10 85,-6 115,12 31,16 49,42 57,77 11,51 -12,91 -67,118 30,0 57,8 79,26 23,17 37,40 43,68 7,34 0,66 -23,94 -22,27 -55,46 -101,56l-181 38 -94 -453zm86 42l28 134 92 -19c25,-5 42,-15 53,-29 12,-15 15,-32 10,-54 -4,-20 -14,-36 -31,-45 -15,-9 -36,-11 -60,-6l-92 19zm70 337l101 -21c25,-5 43,-15 55,-31 12,-16 15,-35 10,-57 -5,-23 -16,-39 -34,-49 -17,-10 -39,-12 -64,-7l-98 21 30 144zm501 -38c-52,11 -98,3 -138,-24 -40,-27 -65,-69 -77,-124 -12,-56 -4,-105 22,-146 26,-40 65,-66 117,-76 52,-11 98,-4 138,21 39,26 64,65 75,117 3,13 4,25 5,36l-275 57c8,29 23,52 45,65 22,13 47,17 75,12 40,-9 65,-31 75,-68l80 -17c-4,36 -19,67 -42,94 -25,26 -58,45 -100,53zm56 -231c-6,-30 -21,-52 -44,-65 -23,-13 -47,-17 -75,-12 -28,6 -48,19 -63,40 -15,22 -21,48 -17,78l199 -41zm371 129l-11 -53c9,-12 23,-30 40,-52 17,-22 30,-39 39,-51 9,-12 20,-28 34,-47 12,-18 22,-34 30,-47 6,-13 13,-28 19,-43 13,-29 17,-57 11,-81 -11,-55 -41,-76 -93,-65 -26,5 -44,18 -54,37 -11,19 -15,42 -10,70l-71 15c-9,-50 -2,-91 21,-123 23,-33 57,-53 103,-63 45,-9 84,-4 116,16 33,21 52,51 61,93 7,32 5,64 -6,97 -7,16 -12,31 -18,44 -6,13 -15,29 -26,46 -12,19 -21,32 -28,42 -7,11 -17,25 -31,43 -14,18 -23,31 -28,38l207 -44 12 63 -317 65zm308 -430c-6,-40 3,-75 27,-104 24,-29 58,-47 103,-56 45,-10 83,-6 114,12 30,18 50,45 57,81 5,27 3,51 -7,73 -11,22 -25,39 -44,49l1 3c27,3 50,13 69,30 18,18 31,45 38,80 8,36 1,69 -21,99 -21,31 -56,50 -103,61 -48,9 -89,5 -124,-12 -36,-18 -59,-50 -71,-94l72 -15c6,23 19,39 39,50 19,11 42,15 69,9 26,-5 45,-17 57,-35 11,-17 14,-38 10,-61 -7,-30 -21,-49 -43,-58 -22,-9 -53,-9 -92,-1l-18 3 -12 -60 17 -4c72,-16 103,-48 93,-94 -4,-21 -14,-36 -30,-45 -16,-10 -36,-12 -61,-8 -24,6 -42,16 -53,31 -11,15 -16,33 -15,51l-72 15z"/>
   <path class="fil6" d="M22354 17540l172 -35c47,-10 86,-7 116,11 30,17 49,43 56,78 11,50 -11,90 -67,118 30,-1 57,7 79,25 23,18 37,41 43,69 7,34 0,65 -22,94 -23,27 -56,46 -102,56l-181 38 -94 -454zm86 43l29 134 91 -19c25,-5 42,-15 53,-29 12,-15 15,-33 10,-54 -4,-21 -14,-36 -30,-45 -16,-9 -37,-11 -60,-6l-93 19zm70 337l101 -21c25,-5 43,-16 55,-31 12,-16 15,-35 10,-57 -4,-23 -15,-39 -34,-49 -17,-10 -39,-13 -64,-7l-98 21 30 144zm525 -423l74 -16 75 359 -75 15 -12 -56c-15,46 -48,74 -101,86 -41,8 -76,2 -109,-19 -31,-22 -52,-57 -62,-105l-44 -211 73 -15 42 199c7,33 20,56 39,70 20,13 44,17 72,12 27,-6 48,-19 60,-40 13,-20 16,-46 10,-79l-42 -200zm399 297c-52,11 -98,3 -138,-24 -40,-28 -65,-69 -77,-125 -11,-55 -4,-103 21,-144 26,-41 65,-67 117,-78 43,-9 81,-5 114,9 32,15 58,40 76,76l-80 17c-21,-35 -54,-48 -97,-39 -31,7 -53,22 -66,48 -14,25 -16,57 -8,95 8,39 23,68 46,85 22,18 48,24 79,17 43,-8 67,-33 73,-74l81 -17c-4,39 -17,72 -41,100 -24,27 -57,45 -100,54zm212 -553l38 180c15,-47 49,-76 101,-87 41,-8 77,-2 109,20 31,21 53,57 63,105l43 211 -73 15 -42 -200c-6,-33 -20,-55 -40,-69 -19,-14 -43,-18 -71,-13 -27,7 -48,19 -60,40 -13,20 -16,47 -9,80l42 200 -75 15 -100 -481 74 -16zm449 410l-100 -483 74 -15 100 482 -74 16zm324 -62c-52,11 -98,2 -137,-24 -40,-27 -65,-69 -77,-125 -12,-56 -5,-104 21,-145 26,-40 66,-66 118,-77 52,-10 98,-3 137,22 40,26 64,65 75,117 3,12 4,24 5,35l-275 57c8,30 23,52 45,66 22,13 48,17 75,12 41,-9 66,-32 75,-68l80 -17c-4,35 -18,66 -42,93 -24,27 -57,45 -100,54zm57 -232c-7,-29 -21,-51 -44,-64 -23,-14 -48,-18 -75,-12 -28,6 -49,19 -64,40 -15,22 -20,48 -17,78l200 -42zm193 -200l12 62c14,-50 45,-80 93,-90l17 76 -19 4c-29,6 -50,18 -62,36 -11,18 -14,45 -6,82l39 189 -74 15 -75 -359 75 -15zm648 243c-61,13 -119,3 -173,-32 -54,-34 -88,-85 -102,-152 -13,-67 -3,-127 33,-180 36,-53 86,-86 151,-99 48,-11 93,-8 135,8 43,16 77,45 103,84l-89 19c-34,-41 -79,-55 -135,-43 -46,9 -80,32 -103,67 -22,37 -28,79 -18,128 10,50 32,87 68,110 35,25 74,32 117,23 43,-9 75,-28 95,-56 21,-28 30,-62 27,-102l-170 36 -12 -59 249 -52 12 59c5,55 -10,106 -44,152 -34,47 -81,76 -144,89zm454 -92c-53,11 -98,2 -139,-25 -39,-26 -64,-68 -76,-124 -12,-57 -5,-105 21,-145 26,-40 66,-66 118,-77 52,-11 98,-4 137,22 40,26 65,64 75,117 3,12 5,24 5,35l-275 57c8,30 23,51 45,66 22,13 48,17 75,11 40,-8 66,-30 75,-67l80 -17c-4,35 -18,66 -42,93 -24,27 -58,45 -99,54zm56 -232c-7,-30 -22,-51 -45,-64 -22,-15 -47,-19 -75,-12 -26,5 -48,19 -63,40 -15,21 -20,47 -16,77l199 -41zm124 -79c-7,-30 1,-59 22,-85 21,-27 53,-44 94,-53 42,-9 77,-5 106,10 29,16 48,42 57,77l-76 16c-5,-18 -14,-30 -28,-38 -13,-8 -29,-10 -50,-6 -19,4 -34,12 -43,23 -10,12 -13,25 -10,39 3,15 12,25 29,30 16,6 35,8 56,7 21,0 43,0 65,2 22,1 41,8 59,20 17,12 28,30 34,56 6,31 -2,59 -24,84 -22,25 -54,42 -95,51 -41,8 -77,5 -107,-10 -29,-14 -50,-40 -60,-76l77 -16c5,17 15,30 28,38 14,7 31,8 51,4 20,-4 36,-11 45,-23 11,-11 15,-24 11,-39 -3,-15 -12,-24 -29,-30 -16,-6 -35,-8 -56,-8 -21,0 -43,0 -65,-2 -21,0 -41,-7 -58,-18 -17,-12 -29,-29 -33,-53zm416 -194l12 57c16,-47 49,-76 102,-87 27,-5 53,-4 78,4 24,9 45,24 62,47 7,-26 21,-49 40,-68 20,-17 43,-30 72,-35 41,-9 78,-2 110,19 32,21 53,56 63,104l44 212 -74 16 -42 -201c-6,-32 -20,-55 -40,-69 -19,-14 -43,-18 -71,-12 -27,6 -47,19 -60,39 -12,21 -16,48 -8,79l41 201 -74 16 -41 -201c-7,-32 -20,-55 -39,-69 -20,-14 -44,-18 -72,-12 -28,6 -48,19 -60,39 -14,21 -16,47 -10,79l42 201 -74 16 -75 -360 74 -15zm918 87c17,-27 22,-58 14,-96 -7,-36 -24,-63 -50,-80 -26,-17 -54,-22 -83,-16 -30,6 -53,22 -71,49 -16,26 -21,58 -14,94 8,37 25,65 51,82 26,18 54,23 83,17 30,-7 53,-23 70,-50zm-117 -260c48,-9 92,-1 131,26 40,28 65,69 76,123 11,55 5,103 -21,144 -25,42 -61,68 -109,78 -28,6 -54,4 -79,-4 -23,-9 -44,-23 -61,-43l14 67 -74 16 -101 -483 75 -15 38 187c8,-23 22,-44 41,-61 18,-18 42,-29 70,-35zm511 -198l74 -15 94 452 -74 16 -41 -200 -213 44 42 200 -75 15 -94 -452 75 -15 40 195 213 -44 -41 -196z"/>
   <path class="fil6" d="M22931 17396c3,13 1,26 -7,37 -7,11 -17,18 -30,20 -14,3 -26,1 -37,-6 -11,-8 -18,-18 -20,-32 -3,-13 -1,-25 6,-36 7,-11 17,-18 31,-21 13,-3 25,0 36,7 11,7 18,17 21,31z"/>
   <path class="fil6" d="M23079 17365c3,13 1,26 -6,37 -7,11 -17,17 -31,20 -13,3 -25,1 -36,-7 -11,-7 -18,-17 -21,-31 -3,-13 -1,-25 7,-36 7,-11 17,-18 30,-21 14,-3 26,0 37,7 11,7 18,17 20,31z"/>
   <path class="fil6" d="M22168 15137c-89,19 -172,3 -249,-46 -77,-49 -126,-121 -146,-218 -20,-96 -4,-182 47,-258 51,-76 123,-124 216,-143 69,-14 134,-10 196,13 60,22 109,62 147,120l-128 26c-49,-58 -113,-79 -195,-62 -65,14 -114,47 -147,98 -32,51 -42,113 -27,183 15,71 48,124 98,158 51,35 107,45 169,33 61,-13 107,-40 136,-80 30,-40 43,-89 39,-147l-244 51 -17 -83 357 -75 18 83c6,80 -15,154 -63,220 -49,66 -118,109 -207,127zm651 -132c-75,15 -142,4 -199,-35 -57,-39 -93,-98 -110,-179 -17,-81 -7,-150 31,-208 37,-58 93,-95 169,-111 75,-15 141,-5 197,32 57,37 92,92 108,167 4,18 6,36 7,51l-395 82c11,43 34,74 65,94 32,19 67,25 108,17 57,-12 94,-45 107,-98l115 -24c-6,51 -26,96 -60,135 -36,38 -83,65 -143,77zm80 -333c-9,-42 -31,-74 -63,-93 -32,-19 -69,-25 -108,-17 -39,8 -70,28 -91,58 -21,31 -29,68 -24,111l286 -59zm178 -113c-10,-44 1,-85 31,-123 31,-38 76,-63 136,-75 60,-12 111,-8 152,15 41,22 69,59 82,109l-110 22c-7,-24 -19,-42 -38,-53 -19,-11 -43,-14 -72,-8 -29,6 -50,17 -63,33 -14,16 -19,35 -14,55 4,22 18,36 41,43 23,8 50,11 81,11 31,-1 61,0 93,2 31,2 59,11 85,29 24,17 41,43 49,80 8,45 -3,85 -34,121 -33,36 -78,60 -137,72 -59,13 -111,8 -153,-12 -43,-22 -71,-58 -86,-110l110 -24c7,25 21,43 40,55 20,11 45,13 74,7 28,-7 50,-18 65,-34 14,-16 19,-35 15,-56 -4,-22 -19,-36 -41,-43 -23,-8 -50,-12 -81,-11 -31,0 -62,-1 -93,-2 -32,-2 -59,-11 -85,-27 -24,-17 -40,-42 -47,-76zm817 222c-75,16 -140,4 -197,-35 -57,-39 -93,-99 -111,-178 -16,-81 -6,-150 31,-208 37,-59 93,-96 167,-112 62,-12 117,-8 164,13 47,21 83,58 109,109l-115 25c-31,-51 -77,-69 -139,-57 -44,9 -76,32 -95,68 -20,37 -24,83 -12,138 11,56 33,96 66,122 32,26 70,34 114,25 62,-13 97,-48 105,-107l116 -24c-4,56 -24,103 -59,143 -35,39 -82,65 -144,78zm305 -795l54 258c22,-67 70,-108 146,-124 58,-11 110,-2 156,29 46,31 76,80 90,150l63 303 -105 22 -60 -287c-10,-47 -28,-80 -57,-100 -28,-19 -62,-25 -102,-16 -40,8 -69,27 -87,56 -19,30 -23,68 -13,114l60 288 -107 22 -144 -692 106 -23zm958 386c24,-38 31,-83 20,-136 -11,-53 -36,-92 -73,-116 -37,-26 -78,-34 -119,-25 -43,10 -76,32 -101,69 -24,37 -31,82 -20,135 11,53 35,92 72,118 38,26 78,34 120,26 43,-10 76,-33 101,-71zm-104 168c-68,14 -131,1 -188,-40 -57,-40 -94,-99 -110,-177 -17,-79 -7,-147 30,-206 35,-59 88,-95 158,-110 40,-8 78,-6 113,6 34,12 63,31 86,58l-19 -92 107 -23 108 516 -108 22 -19 -96c-12,35 -30,65 -57,91 -26,26 -60,42 -101,51zm534 -658l18 88 -95 19 88 428 -107 23 -89 -429 -61 13 -18 -87 61 -13 -8 -36c-12,-59 -5,-106 21,-140 25,-33 72,-57 139,-71l19 89c-32,7 -54,17 -65,32 -10,15 -12,37 -6,67l8 37 95 -20zm362 16l-125 26 59 285c5,19 12,32 23,39 10,6 27,7 49,3l64 -14 19 89 -84 17c-99,21 -159,-16 -179,-112l-59 -285 -61 12 -18 -86 61 -13 -27 -128 108 -22 26 128 126 -26 18 87zm88 45c-10,-44 1,-85 31,-123 31,-38 76,-63 136,-75 60,-12 111,-8 152,14 42,23 69,60 82,110l-110 23c-7,-25 -19,-43 -38,-54 -19,-11 -43,-14 -72,-8 -29,6 -50,17 -63,33 -14,16 -19,35 -14,56 4,20 17,35 41,43 23,7 50,11 81,10 31,-1 61,0 93,2 31,2 59,11 84,29 25,17 42,44 49,79 9,46 -2,86 -34,122 -32,36 -77,60 -136,72 -59,13 -111,8 -153,-13 -43,-21 -72,-57 -87,-109l111 -23c7,24 21,42 40,53 20,11 45,14 74,7 28,-6 50,-17 65,-33 14,-16 19,-35 15,-57 -4,-21 -19,-35 -41,-42 -23,-8 -50,-11 -81,-11 -31,0 -62,-1 -93,-3 -32,-1 -60,-10 -85,-27 -24,-15 -40,-41 -47,-75zm708 -302l18 87 -96 20 89 428 -107 23 -89 -429 -61 13 -18 -87 61 -12 -8 -37c-12,-59 -6,-106 20,-140 26,-33 73,-57 140,-71l19 89c-33,7 -54,17 -65,32 -10,15 -12,37 -6,67l7 37 96 -20zm454 -94l106 -22 108 515 -107 22 -16 -81c-22,66 -71,107 -146,123 -59,12 -110,2 -156,-28 -46,-31 -76,-80 -90,-150l-63 -303 105 -22 60 288c9,46 28,79 57,99 28,19 62,25 102,17 40,-9 69,-28 87,-57 18,-29 22,-67 13,-114l-60 -287zm317 -251l53 258c22,-66 71,-108 146,-124 58,-12 110,-2 156,28 46,31 76,81 90,151l63 304 -105 22 -60 -289c-9,-45 -28,-79 -57,-98 -28,-20 -62,-26 -102,-18 -40,8 -69,27 -87,57 -18,29 -22,67 -13,113l60 288 -106 23 -145 -692 107 -23zm643 51l19 89c19,-72 64,-115 134,-130l23 111 -27 5c-42,9 -71,26 -89,51 -16,26 -19,65 -8,118l56 271 -107 22 -107 -515 106 -22zm579 426c-75,16 -141,4 -198,-35 -57,-39 -93,-99 -110,-179 -17,-81 -6,-150 31,-208 37,-58 93,-96 168,-111 75,-15 142,-5 198,32 57,36 92,92 108,167 4,18 6,35 6,51l-394 82c11,43 33,74 65,94 32,19 67,25 108,17 57,-12 94,-44 107,-97l115 -25c-6,51 -26,96 -61,134 -35,39 -83,65 -143,78zm81 -334c-9,-41 -31,-72 -63,-92 -33,-20 -69,-25 -108,-17 -39,8 -70,27 -91,58 -21,31 -29,68 -24,111l286 -60zm277 -287l18 90c20,-73 64,-116 134,-130l24 109 -28 6c-42,9 -71,26 -88,52 -17,25 -20,65 -9,117l56 271 -107 22 -107 -515 107 -22z"/>
   <path class="fil6" d="M22235 13077l146 701 -141 30 -92 -444 -99 484 -102 20 -282 -401 93 442 -143 29 -146 -702 158 -33 334 473 117 -567 157 -32zm618 438c24,-35 30,-79 20,-129 -11,-52 -34,-89 -69,-112 -36,-23 -73,-30 -113,-22 -40,9 -71,30 -94,65 -23,35 -30,78 -19,129 11,51 34,88 69,111 36,24 74,31 112,23 40,-8 71,-30 94,-65zm-301 152c-61,-43 -100,-107 -118,-191 -18,-84 -6,-157 31,-221 39,-64 97,-104 173,-120 77,-15 142,3 195,59l-18 -87 141 -29 115 557 -140 29 -19 -93c-29,76 -80,122 -155,138 -76,16 -144,1 -205,-42zm998 -713l-124 310 239 247 -159 34 -142 -147 -67 190 -143 30 124 -310 -240 -248 159 -33 142 147 67 -190 144 -30zm1119 -383l146 701 -142 29 -92 -443 -99 484 -101 20 -282 -401 92 441 -142 30 -146 -703 158 -32 334 472 116 -566 158 -32zm564 33l142 -30 116 557 -141 30 -18 -85c-23,69 -75,111 -155,128 -63,13 -119,3 -168,-31 -49,-33 -81,-87 -97,-162l-68 -327 141 -29 64 307c9,44 27,75 54,94 27,18 59,24 98,16 38,-8 66,-26 84,-54 17,-28 21,-64 12,-108l-64 -306zm296 108c-10,-48 1,-93 36,-134 34,-41 85,-69 153,-83 67,-15 124,-10 173,15 47,23 78,63 92,118l-144 30c-14,-46 -48,-64 -102,-52 -26,6 -46,15 -59,28 -12,15 -16,31 -12,49 3,19 18,32 42,38 25,6 53,9 86,8 33,-1 65,1 98,3 33,3 63,14 90,32 27,18 45,47 52,85 12,50 -2,96 -37,136 -37,41 -87,67 -154,82 -66,13 -123,9 -172,-14 -49,-22 -81,-62 -97,-119l144 -31c15,46 50,63 105,52 26,-5 46,-16 60,-31 13,-15 18,-32 14,-51 -4,-19 -18,-32 -43,-38 -24,-7 -53,-9 -86,-9 -32,0 -65,0 -98,-3 -33,-2 -63,-12 -90,-30 -27,-18 -44,-45 -51,-81zm851 111l68 -15 25 119 -90 19c-57,12 -104,8 -140,-12 -36,-20 -60,-60 -73,-120l-57 -273 -59 12 -24 -115 59 -13 -28 -137 142 -30 28 138 125 -26 24 116 -125 25 57 273c4,18 11,31 21,36 10,6 26,6 47,3zm440 40c-81,17 -152,5 -214,-37 -62,-43 -102,-107 -120,-194 -18,-86 -7,-160 33,-223 41,-63 102,-102 184,-120 81,-16 153,-5 216,34 63,41 103,102 120,187 4,19 7,38 8,55l-407 85c11,35 31,61 59,78 28,18 60,23 96,16 49,-11 82,-38 97,-83l152 -33c-5,57 -27,107 -66,149 -40,44 -92,72 -158,86zm65 -360c-10,-36 -30,-63 -59,-79 -30,-18 -62,-23 -98,-15 -36,7 -63,25 -82,52 -19,27 -28,59 -25,97l264 -55zm352 -316l20 98c23,-79 70,-125 141,-140l30 144 -35 8c-42,9 -72,25 -89,52 -17,25 -21,64 -10,115l59 280 -142 30 -116 -558 142 -29zm405 -85l17 84c23,-69 75,-111 154,-127 42,-10 83,-7 120,5 37,13 68,35 94,67 12,-38 33,-72 62,-98 30,-28 66,-45 108,-55 67,-13 124,-4 174,29 49,33 81,87 97,163l68 328 -140 29 -64 -308c-10,-43 -28,-74 -55,-93 -27,-18 -59,-24 -97,-16 -39,8 -66,26 -84,54 -18,27 -22,63 -13,107l64 307 -141 30 -64 -308c-9,-44 -27,-75 -54,-93 -26,-19 -60,-24 -97,-16 -38,8 -67,26 -84,54 -18,28 -22,63 -13,107l64 308 -142 29 -116 -557 142 -30zm1362 133c24,-36 30,-78 20,-130 -11,-50 -34,-87 -70,-110 -35,-23 -73,-31 -113,-22 -39,7 -71,29 -94,64 -23,35 -29,78 -19,129 11,51 34,88 70,111 35,23 73,31 112,23 39,-8 71,-30 94,-65zm-301 151c-62,-43 -101,-106 -119,-190 -17,-84 -6,-158 32,-221 39,-64 96,-104 173,-119 76,-17 141,3 194,57l-18 -86 141 -29 116 557 -141 29 -19 -93c-28,76 -80,122 -155,137 -75,16 -143,3 -204,-42zm696 -650l17 84c23,-68 74,-111 154,-127 63,-14 120,-3 169,30 49,34 81,88 97,162l68 328 -141 29 -64 -307c-9,-44 -27,-75 -54,-94 -27,-19 -60,-23 -98,-15 -38,7 -66,25 -83,53 -18,28 -22,63 -13,107l64 308 -142 29 -116 -557 142 -30zm677 -140l17 83c22,-68 74,-111 153,-128 64,-12 121,-3 170,31 49,33 81,88 97,162l68 328 -141 29 -64 -308c-9,-43 -28,-74 -54,-92 -27,-19 -60,-25 -98,-17 -38,9 -66,26 -83,54 -19,28 -22,64 -14,107l64 308 -141 30 -116 -557 142 -30z"/>
   <path class="fil6" d="M24964 13890c3,15 1,29 -8,42 -8,12 -20,20 -35,23 -15,3 -29,1 -41,-8 -13,-8 -21,-19 -24,-35 -3,-15 -1,-29 7,-42 9,-13 20,-21 36,-24 15,-3 29,-1 41,7 13,9 21,21 24,37z"/>
   <path class="fil6" d="M25135 13854c3,15 0,29 -8,42 -8,13 -20,21 -35,24 -15,3 -29,1 -42,-8 -12,-8 -20,-20 -24,-36 -3,-15 0,-29 8,-42 8,-12 20,-20 35,-23 15,-3 29,-1 42,8 13,8 21,19 24,35z"/>
   <path class="fil6" d="M27027 13460c3,16 0,29 -7,42 -9,13 -21,20 -36,24 -15,4 -29,0 -42,-8 -13,-8 -20,-20 -24,-35 -3,-16 0,-30 8,-43 8,-12 20,-20 35,-23 16,-4 29,-1 42,7 13,8 20,21 24,36z"/>
   <path class="fil6" d="M27197 13424c3,16 1,30 -7,42 -9,13 -20,22 -35,25 -15,3 -30,0 -42,-8 -13,-9 -21,-21 -24,-36 -3,-15 -1,-30 8,-42 8,-13 20,-21 35,-24 15,-3 29,0 42,8 12,9 20,20 23,35z"/>
   <polygon class="fil5" points="33896,8651 34838,8455 34184,24488 33242,24684 "/>
  </g>
  <g id="_0">
   <image x="5482" y="24823" width="35985" height="2119" xlink:href="отрисовка визитки_Images\отрисовка визитки_ImgID1.png"/>
  </g>
 </g>
</svg>
